# vtk DataFile Version 3.0
vtk output
ASCII
DATASET POLYDATA
POINTS 1026 float
30.4685 -1.19556 7.5 7.031 18.281 0 7.031 6.0935 24.589 
-15.469 -1.00167 7.5 7.031 -18.2815 14.399 7.031 -9.844 -15 
20.4876 11.2946 3.14721 22.5992 4.49857 20.2646 24.2228 -16.1732 13.6532 
22.1225 -5.01756 -5.42427 7.26657 19.373 15.5273 -6.97033 11.865 3.49362 
6.107 10.5346 -10.7019 -9.53539 5.22468 21.8152 6.99664 -6.86208 20 
-9.60536 -17.5395 12.7209 -6.91827 -4.67443 -5 7.93539 -16.2029 -0.814908 
26.5358 6.48185 4.73433 28.1549 2.13442 15 28.965 -9.14233 10.6457 
26.2611 -3.3423 0.651448 14.58 15.3529 1.68488 7.43561 17.8953 8.3373 
-1.35613 16.5126 1.38789 6.81715 13.0415 -3.18287 14.8841 5.47595 22.8809 
6.7726 13.7247 20.7716 -1.53276 6.39307 25 6.94161 -1.81775 25 
-12.0251 6.6714 5.34817 -15.8569 2.97924 15.7458 -16.3008 -9.90652 10.0112 
-12.0523 -2.93872 0 15.6265 -18.4051 14.7144 6.92265 -14.9156 20 
-0.643833 -17.7855 13.9053 7.60797 -17.4944 6.62337 16.319 -7.05431 -10.5504 
6.06592 1.94713 -15 -1.828 -6.40804 -9.17066 8.07827 -11.735 -5.07139 
25.7005 10.993 12.2035 23.2379 3.99708 -2.31046 15.814 17.6832 8.92416 
14.9674 11.8097 -4.51455 26.1891 -5.91515 19.4309 16.0661 13.1191 19.6683 
15.8303 -3.33481 24.9277 26.4416 -12.5056 1.5319 15.8785 -13.1452 20 
16.0638 -18.2762 5.35504 16.2133 2.5319 -11.5767 16.0836 -13.2027 -5 
-1.75029 17.4606 10 -2.05725 14.5009 20.7632 -0.295645 9.94272 -1.91955 
-11.9003 11.6956 12.6688 -8.71162 4.27732 -1.44734 -1.8803 2.44749 -9.16937 
-1.92193 -3.46569 24.7456 -13.5239 -6.3751 20 -1.64865 -13.3306 20 
-9.98481 -11.1872 2.02351 -0.634767 -16.4393 5.18947 -0.947312 -12.8937 -5 
28.6298 3.02777 6.05984 30.6819 0.688188 11.8061 30.5112 -5.24095 9.01929 
27.9837 -2.28773 4.17244 11.2168 16.8776 0.975025 7.27048 18.6619 4.52735 
2.7705 17.8355 0.716843 7.0594 14.4353 -0.118774 10.5069 5.41305 23.272 
7.03541 9.87654 22.944 2.99783 6.39169 25 6.91285 2.20634 25 
-13.904 3.24067 6.45792 -17.3312 1.06486 11.4551 -16.3642 -5.09613 8.64094 
-14.3359 -1.94486 3.25805 11.2202 -18.642 14.7025 6.63943 -18.4213 18.5041 
3.27707 -17.8127 14.168 7.37667 -17.8344 10.497 13.0298 -9.29395 -13.7971 
6.38933 -3.82511 -15 0.909386 -8.68427 -12.5571 7.59431 -10.7034 -9.38102 
23.4761 8.98232 3.90427 17.6142 13.5082 2.36923 23.6499 11.5952 7.07581 
22.0353 7.76704 0.360488 18.781 15.0697 5.72623 17.8526 11.4553 -0.730562 
25.6974 3.44791 17.9752 19.2767 5.3834 22.1673 24.1893 7.47737 16.2289 
24.6018 -0.594868 20 19.6308 8.71164 20 20.5812 0.939548 24.3921 
27.3164 -13.0799 12.31 20.0403 -17.8685 14.4469 26.0903 -11.5109 17.2635 
26.7017 -15.6817 7.51439 21.0283 -16.3824 19.4345 20.3756 -18.3763 9.26494 
24.2717 -4.2434 -2.46553 19.4358 -5.99101 -7.95343 23.378 -0.422804 -4.39597 
23.7163 -8.44152 -1.64348 20.3483 -1.72063 -9.72505 19.4251 -9.08594 -5 
7.47945 20.2812 11.5182 7.20082 17.3823 19.3133 12.1157 19.6399 12.3324 
11.8045 16.8591 18.0793 2.43811 20.5781 12.318 2.36724 18.2334 18.8783 
-4.45396 14.2695 2.41014 -9.66468 9.52398 4.36752 -4.9048 15.0084 6.58452 
-4.05372 11.2977 0 -9.07527 11.4597 8.09508 -8.6092 8.49664 0.418772 
6.10368 13.1589 -7.09409 5.8067 7.36662 -14.6013 11.3614 12.8804 -8.45821 
11.8376 7.7719 -13.3707 2.23862 10.5768 -6.23758 1.39577 6.67638 -10.9818 
-6.39817 6.1211 25 -13.3223 4.58965 19.9202 -6.54891 10.5956 22.3995 
-11.1697 8.75042 17.6552 -6.91404 0.544857 25 -11.4038 -0.374322 20 
6.97218 -4.56978 22.809 6.99986 -10.8628 20 11.2818 -4.87461 22.0105 
11.3142 -9.93232 20 2.67139 -4.91475 21.9054 2.72178 -10.0039 20 
-14.5808 -15.1003 11.4276 -4.82655 -17.5814 13.447 -13.4442 -13.3044 17.7278 
-6.08734 -16.2586 18.2304 -10.8968 -15.0168 6.40592 -4.70808 -16.4979 8.77768 
-9.28152 -3.81923 -2.16114 -3.6105 -5.09791 -5.86859 -8.69052 0.015489 -3.99711 
-3.98764 -1.29755 -6.1962 -8.16092 -7.82291 -1.2931 -4.42711 -8.80748 -5 
7.9371 -15.3556 3.17602 7.9185 -15.7076 -4.62844 12.302 -16.173 2.34407 
12.2641 -16.0297 -3.68659 3.58595 -15.1728 2.27407 3.38726 -16.1588 -3.87075 
28.9501 4.79092 10.0115 27.1649 1.58817 2.47647 26.2952 8.55513 8.46822 
25.3189 5.43643 0.768819 30.0084 -3.73369 13.5292 27.8391 6.89725 14.0598 
27.1893 -2.03574 17.0442 28.743 -6.60076 5.10458 27.9712 -7.78576 15.3489 
28.4596 -11.3252 6.16407 24.944 0.410421 -0.971966 26.5619 -7.67743 1.0597 
11.335 17.8269 4.55494 10.7695 14.059 -0.608687 15.3134 16.7805 5.06549 
14.5324 12.9026 -0.888201 2.89471 17.857 4.89622 11.6376 18.2513 8.60101 
2.84236 17.7966 9.27973 3.33472 14.0555 0 -1.41309 16.3777 5.80312 
-0.715253 12.8441 0 10.9002 13.2073 -4.3468 3.24159 11.3091 -2.55134 
10.1383 8.41003 20 10.9593 2.14117 25 15.3174 8.52108 20 
15.7828 1.72436 25 3.1884 11.1451 25 11.2266 13.4174 20 
2.69392 15.1462 21.9978 2.80762 2.0395 25 -2.39572 11.6006 25 
-1.99846 1.38579 25 11.2552 -2.4821 25 2.63074 -2.60319 25 
-15.443 5.61523 9.98672 -13.3395 2.19616 2.22743 -12.138 9.01702 9.0195 
-11.0491 5.69718 1.30451 -17.4168 -3.52235 13.3402 -14.4944 7.94301 14.3183 
-15.5321 -1.69499 18.4914 -14.677 -6.37709 4.18362 -16.4369 -8.73957 15.8268 
-13.7922 -11.2801 5.07058 -10.3974 0.980884 -0.476867 -12.0182 -7.64586 0 
11.2101 -18.8342 19.1248 11.3945 -18.1684 10.5002 16.3305 -17.8933 19.4195 
15.9796 -18.2866 9.96855 2.89834 -17.5489 18.1726 11.3587 -14.2287 20 
2.71702 -14.1448 20 3.48553 -17.7888 10.1204 -1.63744 -17.3696 18.4257 
-0.812833 -17.6906 9.42601 11.7834 -18.0159 6.03202 3.51704 -17.0105 5.8786 
12.528 -3.56169 -15 12.13 -10.8366 -8.91116 16.9846 -2.52454 -12.179 
15.8098 -9.50717 -6.59171 0.027956 -3.34372 -15 12.2273 2.66798 -15 
0.057596 2.99875 -14.1076 3.1798 -9.44534 -7.9992 -2.62832 -2.00986 -10.1165 
-0.758566 -8.84806 -5.82181 12.0577 -12.6842 -5 3.56754 -12.3202 -5 
20.8546 14.7734 10.485 20.7903 11.9892 15.8023 19.1302 7.87789 -3.80865 
20.6404 3.59213 -7.45294 16.4604 16.5213 14.5267 16.0911 8.50026 -9.06887 
21.2122 -4.38789 21.2689 21.5189 -9.99807 20 15.9392 -6.82844 20 
22.0889 -17.8074 2.94063 21.3872 -13.4485 -2.27613 16.5528 -16.6172 -0.598696 
-2.8017 18.3406 15.2085 -7.64934 15.7807 11.1259 -7.29005 13.181 16.8226 
-4.67033 7.41722 -1.89878 -1.1587 7.0236 -5.93158 -4.94806 3.43115 -5 
-7.46775 -4.19027 21.067 -1.97554 -7.04081 20 -7.65172 -10.6145 20 
-5.78688 -14.8047 3.5969 -6.37418 -12.8048 -2.30594 -1.2534 -15.6499 -0.463629 
29.6406 1.10415 6.71283 30.4965 -0.226414 9.64142 30.7778 -3.12543 8.195 
29.4653 -1.59169 5.4893 9.33669 17.5835 0.645456 7.24978 19.3178 2.40388 
4.89079 18.0702 0.55573 7.05786 16.2009 0 8.62205 5.62023 23.7365 
7.05777 7.89131 23.8905 5.1218 6.26612 25 6.92304 4.17292 25 
-14.6754 1.25267 6.99664 -16.2539 0.030956 9.51815 -16.073 -2.90929 8.0176 
-14.9138 -1.42754 5.37173 9.0842 -18.5854 14.5883 6.78793 -18.7033 16.4742 
5.15512 -17.9476 14.3093 7.26105 -17.8497 12.4608 10.1489 -9.8814 -14.7249 
6.61283 -6.85015 -15 3.41415 -9.84924 -14.2251 7.28483 -11.0729 -11.9937 
21.9576 10.1393 3.53321 19.069 12.4463 2.74156 22.02 11.427 5.10433 
21.3685 9.60713 1.72562 19.7645 13.2511 4.36846 19.198 11.4014 1.16155 
24.3323 4.12397 19.4708 20.9904 4.84556 21.2058 23.7215 6.12124 18.5806 
23.5694 2.01839 20 21.2112 6.57916 20 21.5869 2.91521 22.0504 
26.0813 -14.8948 13.0664 22.2314 -17.3715 14.1444 25.688 -14.2634 15.7399 
25.5759 -16.1047 10.6476 22.9663 -16.6321 16.7359 22.4439 -17.6668 11.4591 
23.3663 -4.66051 -4.07573 20.7327 -5.41249 -6.60679 22.9172 -2.76885 -5.05699 
23.0747 -6.69774 -3.69938 21.3444 -3.52414 -7.43723 20.8449 -7.00951 -5.17531 
7.38095 20.2943 13.5238 7.19371 18.3957 17.4579 9.76076 19.7727 13.9655 
9.52481 18.076 16.7893 4.93077 20.6227 14.1139 4.82536 19.0287 17.2512 
-5.65237 12.9938 3.00947 -8.32633 10.7281 3.93583 -6.0043 13.4831 5.00908 
-5.78246 11.8874 1.36577 -8.00314 11.6474 5.76707 -7.9719 10.3368 1.91577 
5.95883 12.2538 -9.14791 6.01672 9.11326 -12.6196 8.68219 12.2143 -10 
8.86101 10.0595 -12.8389 3.72103 11.0791 -8.64863 3.82705 8.47293 -10.9023 
-8.43219 5.75704 23.878 -10.8544 4.85532 20 -8.36742 8.01886 22.4709 
-10.4669 7.22833 19.9879 -8.71861 2.99017 23.9537 -10.3031 2.41916 20.6379 
6.98564 -5.36691 20.9867 7.00289 -8.85787 20 9.12911 -5.62348 20.6385 
9.14365 -8.38222 20 4.84731 -5.65544 20.5951 4.86368 -8.42418 20 
-12.2147 -16.7444 12.1644 -7.08781 -17.5574 13.1118 -11.7871 -15.7972 15.2012 
-7.85803 -16.6918 15.6059 -10.5366 -16.383 9.53012 -7.01015 -17.0459 10.5899 
-8.3283 -4.34068 -3.78878 -5.0877 -4.84692 -5.03931 -8.0676 -2.41775 -4.8411 
-5.22037 -2.90542 -5 -7.78152 -6.27136 -3.33922 -5.69193 -6.70974 -5 
7.96719 -15.5747 1.17476 7.91859 -16.6757 -2.79128 10.1651 -15.8232 0.738402 
10.119 -16.7052 -2.32918 5.74599 -15.7089 0.721731 5.69211 -16.7154 -2.33906 
27.7247 4.85807 5.34328 25.0046 7.77326 4.29935 27.9337 5.69782 7.21687 
27.3182 4.16812 3.43646 26.4289 7.45353 6.61633 26.1197 6.03179 2.66649 
30.0317 1.57973 13.935 26.6043 2.69304 16.2324 29.6777 3.76777 12.9097 
29.6281 -0.767342 14.8488 28.0948 4.50753 14.5729 27.4465 -0.113417 15.6714 
29.931 -7.27064 9.87103 28.1975 -11.0993 11.4649 29.8919 -6.55789 12.1924 
29.8382 -8.15306 7.62214 28.6999 -8.58129 13.1181 28.9714 -10.3601 8.40641 
27.1341 -2.8575 2.36076 25.0958 -3.78454 -0.825563 26.8294 -0.927168 1.56274 
27.3464 -4.90394 2.91674 25.6427 -1.43471 -0.181146 26.4433 -5.45497 0.898682 
13.0061 16.2281 1.25526 16.0626 14.3987 2.07411 13.0797 16.8801 2.94095 
12.8252 14.9484 0.132845 14.8926 16.0106 3.36171 14.5805 14.1081 0.398733 
7.36713 17.8502 6.48105 7.46296 19.0572 9.88443 9.40329 17.923 6.42003 
5.24531 17.3207 6.64563 9.53475 18.1815 8.44832 5.19717 17.6422 8.93675 
0.549964 17.4246 0.939814 -3.08757 15.5008 1.82035 0.487439 17.966 3.09952 
0.925692 15.6449 0 -1.53061 16.7205 3.58429 -1.20846 14.9029 0 
7.00792 13.4536 -1.50019 6.45997 13.1001 -5.13916 8.82169 13.4142 -1.82027 
5.26095 13.0804 -1.1896 8.81191 13.3583 -3.85585 5.00395 12.2153 -2.93325 
12.6619 5.43454 23.0246 17.1355 5.51604 22.6698 12.5562 6.37334 20.9106 
12.9328 4.27859 24.9185 15.0596 6.50279 20.714 15.4314 4.24202 24.9675 
6.78552 11.8218 21.8003 6.94096 15.6245 20.0447 8.32719 11.1513 20.3418 
5.56833 12.9671 23.541 8.82698 13.5109 20 5.03758 14.74 21.8017 
0.774512 6.43056 25 -3.92287 6.28696 25 0.703044 8.80507 25 
0.683959 4.13769 25 -1.96883 8.93703 25 -1.82049 3.879 25 
6.92501 0.200933 25 6.95769 -3.61015 24.554 8.96135 0.128771 25 
4.88166 0.076326 25 9.08248 -2.13717 25 4.80244 -2.19728 25 
-13.1306 5.08717 5.8498 -10.9351 8.20066 4.83103 -13.3225 5.94235 7.79063 
-12.6822 4.42469 3.88703 -11.9773 7.69977 7.25931 -11.6106 6.20322 3.27329 
-17.2391 2.10956 13.6817 -14.7653 3.83069 17.9148 -17.4712 4.77346 12.8602 
-16.9111 -0.253141 14.6746 -15.782 5.73262 15.3271 -15.7201 0.638759 17.1173 
-16.5613 -7.44686 9.28395 -15.702 -12.4691 10.7071 -17.4497 -6.79594 11.7957 
-15.5821 -8.10719 6.90884 -17.1851 -9.63055 12.8936 -15.0661 -10.7425 7.437 
-13.5503 -2.45728 1.23152 -10.2974 -3.36527 -0.558437 -13.1369 -0.359975 0.686769 
-13.7189 -4.64625 1.60958 -11.1407 -0.917348 0 -12.1417 -5.19766 0 
13.4173 -18.6455 14.733 17.849 -18.1753 14.6253 13.5827 -19.3754 17.0006 
13.4633 -17.9049 12.5538 16.1475 -18.9162 17.1465 15.823 -17.9084 12.3169 
6.76854 -16.9126 19.85 6.97903 -12.8825 20 8.92162 -17.0525 20 
4.84373 -16.6039 19.7593 9.11679 -14.6201 20 4.82151 -14.5147 20 
1.34524 -17.8 14.0442 -2.69573 -17.7419 13.7151 1.11172 -17.781 16.115 
1.41315 -17.8062 11.9703 -1.16586 -17.7483 16.1441 -0.771929 -17.7688 11.657 
7.48135 -17.8313 8.51986 7.79211 -16.3952 4.98185 9.43202 -18.1205 8.47859 
5.53384 -17.7865 8.32841 9.65405 -17.7764 6.32784 5.57363 -17.2705 6.22688 
14.8451 -8.04854 -12.1406 17.9135 -6.50977 -9.20268 15.4428 -6.08839 -13.9227 
14.4356 -9.34011 -10.1165 17.0077 -5.11003 -11.7684 16.0533 -8.33117 -8.51811 
6.21367 -0.899925 -15 5.92603 4.74108 -15 9.24668 -0.819691 -15 
3.1223 -0.651018 -15 9.17587 2.31649 -15 2.89322 2.55212 -15 
-0.646086 -7.40001 -10.9861 -2.67162 -5.62531 -7.37398 -1.62286 -5.46658 -12.257 
0.386684 -8.36625 -9.06623 -2.41578 -4.3142 -9.87575 -1.1509 -7.60896 -7.35351 
7.95059 -10.6395 -7.0017 7.9386 -13.8381 -5 9.977 -11.1809 -7.06033 
5.79127 -10.4202 -6.61925 10.0588 -12.4176 -5.27168 5.79297 -12.0138 -5 
24.6484 11.2886 9.5895 25.3289 9.50468 14.593 26.105 9.77872 10.3528 
27.0396 9.1365 13.1864 23.2273 12.9396 11.3382 23.5216 11.8655 14.3268 
22.6991 5.92795 -1.0314 23.4677 1.86151 -3.44831 24.0643 4.57669 -0.630594 
24.1375 2.19821 -1.68401 21.3181 6.00422 -3.16535 21.9106 3.74345 -4.80178 
17.613 16.8653 7.13685 14.0328 18.496 10.696 15.6664 17.472 6.87953 
13.7416 18.12 8.75611 18.3753 16.36 9.65608 16.4102 17.6162 11.7664 
16.4062 11.4307 -2.503 13.4191 12.3524 -6.51816 14.6655 12.1052 -2.47969 
13.0039 12.4727 -4.52179 17.3173 10.0939 -4.4173 15.7798 10.7017 -6.97618 
25.6473 -3.15279 20 26.4064 -8.75577 18.5386 26.8492 -3.96204 18.324 
27.1631 -6.90917 17.4537 23.4779 -4.98964 20 24.0865 -8.12298 20 
17.8886 10.8854 19.927 14.0749 15.3179 19.1987 15.6731 10.8565 20 
13.6744 13.334 20 18.5707 12.6568 17.8065 16.3707 15.07 17.2194 
18.3685 -1.3829 25 13.4874 -4.29875 23.5189 15.9133 -0.835869 25 
13.489 -2.87738 25 18.9769 -4.22735 23.5484 15.9472 -4.8708 22.0205 
26.6638 -14.2006 4.41551 24.9832 -10.3464 0 27.5213 -11.9964 3.85347 
26.6407 -10.0206 1.21298 24.9228 -15.7928 1.86521 23.5813 -12.9777 -0.002072 
18.3921 -14.8228 20 13.5431 -11.522 20 16.1687 -15.5952 20 
13.6203 -13.7374 20 18.7647 -11.6689 20 15.9358 -9.92629 20 
18.1973 -18.635 7.22537 14.0528 -17.5618 3.71449 16.063 -18.6608 7.64464 
13.9072 -18.1969 5.7131 18.9818 -18.1092 4.29069 16.3923 -17.6667 2.29075 
18.1135 0.377776 -10.2016 14.0976 5.00898 -12.6271 16.8874 0.14847 -12.208 
14.7821 2.85056 -13.8635 18.8692 3.23301 -10 15.9772 5.57621 -10.245 
17.8289 -11.2021 -5 14.1925 -14.8073 -4.72714 15.8313 -11.0891 -5.14852 
14.0123 -12.9669 -5 19.131 -13.8906 -4.66972 16.5604 -15.522 -3.48203 
0.172014 19.5877 10.5845 -3.4633 16.1534 8.26208 0.548602 17.8583 9.53919 
-1.39164 16.2894 7.99501 -2.90991 19.6952 12.0117 -5.11686 17.4473 10.0622 
-0.002194 16.5315 19.9163 -4.24976 12.5853 21.6567 0.221904 14.9854 21.5675 
-2.25223 13.1979 22.8917 -2.55059 16.5749 18.1074 -4.7849 13.9528 18.8608 
-1.95533 10.3106 -0.268826 1.04397 10.0752 -3.94944 -0.33758 11.0673 -0.41303 
1.4179 10.6943 -2.22047 -2.47295 8.67616 -1.8675 -0.851242 8.71046 -4.07155 
-10.549 11.6395 10.3031 -11.5265 10.1185 15.0438 -12.1496 10.3837 10.8293 
-13.1764 9.90946 13.4553 -9.72973 13.7223 11.9965 -9.67426 12.4361 14.8129 
-8.49822 6.12544 0 -9.04067 2.38764 -2.92084 -9.87798 4.9296 -0.089851 
-9.696 2.71048 -1.12932 -6.73508 5.99201 -1.77898 -7.29069 4.1455 -3.82453 
-0.517692 4.58172 -10.3342 -2.81791 0.413211 -7.58479 -1.30113 2.73271 -11.5651 
-2.36584 0.260846 -9.79222 -1.32011 4.85046 -7.43853 -2.74428 2.67685 -6.16731 
-4.40412 -1.67768 25 0.435565 -4.35695 23.3665 -2.04206 -1.11269 25 
0.399841 -3.05624 25 -4.98567 -4.12207 23.2435 -2.00086 -4.93696 21.8271 
-12.6107 -3.23769 20 -14.0175 -9.8815 19.5681 -14.8171 -4.07429 19.6125 
-15.4376 -7.68112 18.5634 -10.2162 -5.14762 20 -10.683 -8.74591 20 
0.560146 -11.6278 20 -3.94531 -15.1525 20 0.565046 -13.7624 20 
-1.78361 -15.7315 20 -1.87716 -10.1625 20 -4.61415 -12.0925 20 
-10.3033 -12.5879 4.58794 -9.28113 -9.72737 0 -11.7447 -11.1243 3.61995 
-11.229 -9.77279 0.827885 -7.75819 -12.8717 3.00565 -7.90965 -11.7445 0.112597 
-2.63709 -16.4469 6.97342 1.47427 -15.6177 3.79064 -0.815634 -17.4014 7.19781 
1.43878 -16.7642 5.52924 -3.22298 -15.5039 4.46336 -0.856513 -15.0985 2.57059 
-2.84837 -10.8683 -5 1.16361 -14.7247 -4.81268 -0.793775 -10.6482 -5 
1.32745 -12.6293 -5 -4.29765 -13.6147 -4.86507 -1.4832 -15.5435 -3.59977 
29.9298 1.93473 8.7671 28.6054 0.357692 5.01565 28.9922 3.91047 7.95584 
27.9003 2.29082 4.25765 30.7595 -2.36325 10.4793 29.9716 2.88268 10.8955 
30.718 -1.57312 12.7845 30.136 -3.81068 5.97935 30.3696 -4.4935 11.3255 
30.3114 -6.10698 6.78039 27.5159 -0.322571 3.3608 28.4138 -4.4186 4.75608 
9.43382 18.5645 2.49327 9.08261 15.9194 0 11.3297 17.6981 2.67496 
11.0136 15.4729 0.002902 4.87486 19.0409 2.55444 9.4087 18.1827 4.50883 
5.08453 18.1459 4.63069 5.04604 16.231 0 2.66053 18.5533 2.79268 
2.98871 16.0385 0 8.934 14.2863 -0.349833 5.21073 14.3823 -0.082709 
8.20172 6.99606 22.3274 8.81321 4.1814 25 10.1917 6.36042 21.1872 
10.8253 4.23591 24.9772 5.39498 8.41626 25 8.09258 9.00088 21.0467 
5.54816 10.6918 24.5965 4.96609 4.21162 25 3.06214 8.68029 25 
2.85213 4.19804 25 8.91197 2.15756 25 4.8929 2.12503 25 
-15.2968 2.08229 9.04409 -14.416 0.693419 4.84951 -14.3671 4.18187 8.4489 
-13.6452 2.69086 4.32683 -16.8596 -2.10225 10.1952 -16.7381 3.38126 10.534 
-17.6963 -1.19888 12.4284 -15.3007 -3.54197 5.87762 -17.1839 -4.38703 11.0012 
-15.5007 -5.80118 6.39389 -14.0349 0.173551 2.66634 -14.5257 -4.1337 3.71258 
8.91538 -19.2558 16.6903 9.25838 -17.8916 12.5668 11.2401 -19.3681 16.8969 
11.3561 -17.9183 12.5908 4.95511 -18.0818 16.304 8.82743 -18.8766 18.9694 
4.81015 -17.7488 18.2237 5.3189 -17.8239 12.3193 3.05816 -17.8127 16.1877 
3.35627 -17.8092 12.1443 9.35836 -17.9503 10.5182 5.42944 -17.805 10.3048 
9.77897 -6.79404 -15 10.0655 -11.0575 -11.9503 12.9008 -6.56822 -15 
12.5953 -10.3632 -11.2926 3.34729 -6.76344 -15 9.48709 -3.72505 -15 
3.22589 -3.6228 -15 4.35646 -10.6756 -11.4039 0.226434 -6.40522 -14.4332 
2.10021 -9.47953 -10.3489 10.0049 -11.0331 -9.39798 5.32939 -10.127 -8.84311 
23.6017 10.2766 5.48281 22.8315 8.40725 2.06486 24.9544 8.81937 6.07908 
24.5126 7.2789 2.33234 18.1397 14.2059 4.05461 17.7379 12.4723 0.838697 
16.4392 15.0746 3.7678 16.1651 13.3819 0.600255 21.4148 13.6067 6.26379 
24.978 10.1058 7.77498 22.4363 13.3274 8.74038 19.794 9.53381 -0.136351 
23.6812 6.67692 0.530429 20.4027 7.58773 -1.56806 17.1016 16.0674 5.36067 
20.0754 15.2561 7.90613 16.2839 12.3829 -0.954776 18.5424 9.74334 -2.26454 
24.9736 5.47544 17.113 25.3531 1.45853 19.2829 26.3686 4.88589 15.5978 
26.3397 0.68792 17.4451 19.3119 6.63491 20.3466 20.3532 3.77662 23.905 
17.2304 6.5773 20.5787 17.9449 4.26931 24.914 22.2398 8.40735 18.4809 
25.9105 7.15461 15 22.5827 9.80918 16.0656 22.0592 0.115117 21.2124 
26.153 -1.22301 18.7959 22.7199 -2.54052 20.2607 17.5057 8.61867 20 
20.4249 10.5814 18.1785 18.2652 1.40775 25 21.2351 -2.2024 23.1769 
26.7133 -12.3455 14.8131 27.0841 -14.3928 9.94352 27.6558 -10.4105 13.8953 
28.2256 -12.3999 9.17227 20.7652 -17.626 17.0272 20.2374 -17.937 11.8164 
18.4803 -18.4555 17.1383 17.9829 -17.9289 12.1009 24.4447 -14.4326 19.0603 
27.0392 -9.61604 16.2817 24.4501 -11.1144 20 23.8471 -17.9226 8.4683 
27.7616 -13.5374 6.79863 24.7432 -17.2984 5.08576 18.7298 -17.3603 19.6419 
21.4702 -13.1421 20 18.139 -18.331 9.63894 21.3923 -18.4246 6.20472 
23.9714 -2.3504 -3.50889 23.8785 -6.26564 -1.9798 24.6507 -1.91082 -1.72722 
25.0771 -5.82307 -0.437101 20.211 -4.17522 -9.15132 19.2326 -7.31789 -6.177 
18.2683 -4.57396 -10.0135 17.6084 -7.74356 -7.31589 21.7795 -1.01296 -6.84459 
24.2242 -0.001025 -2.69187 21.982 1.49027 -5.92034 22.3213 -9.0981 -4.39694 
24.9449 -8.04655 0 22.7804 -10.9813 -2.05007 18.1927 -2.10852 -10.1178 
20.6817 1.11789 -8.80197 17.4589 -9.1151 -5.47097 20.8903 -11.5437 -4.63639 
9.8371 20.2199 11.9301 4.98538 20.9368 11.7924 9.67986 19.2464 10.0522 
5.09531 19.3441 10 9.49901 17.2404 18.7716 4.87579 17.9816 19.2079 
9.24722 15.6294 20 4.9012 16.2789 20.4778 11.9794 18.3848 15.2321 
11.8676 18.925 10.4432 14.4412 18.3728 13.5449 11.6755 15.5848 19.8803 
14.2469 16.8211 16.3575 2.34685 19.5947 15.6365 2.62685 19.4921 10.3098 
-0.304125 19.9718 13.8647 2.49485 16.3831 20.029 -0.220823 18.3018 17.0385 
-4.70672 14.6718 4.47982 -4.42324 12.9111 0.8909 -3.20792 15.7395 3.97231 
-3.027 14.0543 0.172953 -9.36008 10.4349 6.24119 -9.36147 9.15871 2.30191 
-10.7467 9.14048 6.72165 -10.6307 7.77085 2.75953 -6.99485 13.3173 7.35071 
-3.26107 15.8189 6.18204 -6.09002 15.2519 8.86284 -6.37044 10.0139 0.099997 
-2.43424 12.0995 0 -4.14068 8.88843 -0.085237 -10.5913 10.2803 8.57344 
-8.32449 13.4885 9.6791 -9.91696 7.15721 0.828279 -6.4701 7.75515 -0.385699 
8.63789 13.6701 -8.09233 4.0418 11.8725 -6.77142 8.68438 13.6365 -5.8468 
4.54388 12.075 -4.84111 9.07999 8.21192 -15 3.34399 7.11766 -12.8469 
9.06376 5.13194 -15 2.89978 5.21993 -14.6767 11.4056 10.4454 -10.8654 
11.1156 13.3205 -6.3773 14.0333 11.0221 -9.27735 12.1305 5.35544 -14.6527 
13.6371 7.83725 -10.5844 1.77106 8.97784 -8.68849 2.69875 11.1342 -4.4392 
0.432736 8.80312 -6.20708 0.812286 4.97922 -12.5174 0.068881 6.854 -8.26887 
-6.93724 8.75632 24.4185 -6.71743 3.35122 25 -4.44309 8.92786 25 
-4.18566 3.66182 25 -12.5166 7.02862 18.9568 -12.3642 2.02092 20 
-14.0498 6.27601 17.0962 -14.4786 1.461 19.1587 -8.91915 9.64306 19.958 
-4.58387 11.1769 23.7943 -6.91804 11.9513 19.5683 -12.9004 8.4163 16.127 
-9.2357 10.9972 17.2713 -9.34042 0.058039 22.486 -4.37588 0.979318 25 
-7.80469 -2.61612 23.7874 -13.8029 -0.928963 20 -9.69179 -2.56333 20.8752 
9.12043 -4.71735 22.4225 4.82899 -4.73732 22.3702 9.09687 -3.81443 24.2768 
4.82232 -3.85006 24.2285 9.15011 -10.4126 20 4.86367 -10.4354 20 
9.1383 -12.5167 20 4.8592 -12.4979 20 11.3257 -6.82422 20 
11.2937 -4.06545 23.9362 13.6202 -5.58613 20.6892 11.355 -12.0499 20 
13.6329 -8.39587 20 2.66812 -6.92619 20 2.62657 -4.1349 23.8419 
0.343729 -5.68131 20.56 2.70374 -12.0712 20 0.386 -8.55012 20 
-14.2788 -14.4042 14.6677 -12.76 -15.2477 8.68942 -15.9668 -12.0806 13.7966 
-14.5764 -13.3077 7.88552 -5.53005 -17.1259 15.8114 -4.86978 -17.2434 11.0817 
-3.29423 -17.5337 16.0203 -2.77339 -17.5975 11.4177 -9.74963 -15.3226 18.2768 
-15.1997 -11.1326 16.8808 -10.6854 -12.254 20 -3.83754 -16.8576 18.3459 
-7.1374 -13.8972 20 -7.77793 -16.0185 7.73489 -12.6704 -13.4312 5.55218 
-8.00425 -14.64 5.15244 -2.71159 -16.997 9.15205 -5.34491 -15.6731 6.12252 
-9.09785 -1.93757 -3.14922 -8.74137 -5.79534 -1.70922 -9.82036 -1.43232 -1.28808 
-10.1472 -5.44863 -0.362441 -4.00903 -3.23493 -6.25222 -3.94947 -6.90138 -5.18993 
-3.10922 -3.70382 -7.9193 -2.47918 -7.16211 -6.18951 -6.22289 -0.664562 -5 
-9.47882 0.490793 -2.17132 -7.1307 1.90348 -5 -3.28917 -1.6007 -7.99292 
-4.18999 0.964152 -5.02985 -6.91217 -8.53449 -3.9623 -9.72249 -7.63246 -0.081007 
-7.59496 -10.3403 -2.04705 -2.50643 -8.80394 -5.0618 -5.95835 -11.1396 -4.70616 
10.2283 -15.4554 2.79295 5.75056 -15.1695 2.69841 10.0102 -16.3811 4.82015 
5.69042 -16.1281 4.55914 10.1068 -15.9595 -4.22345 5.69383 -15.9309 -4.26861 
10.061 -14.2752 -5 5.7413 -14.1412 -5 12.2814 -16.425 -0.738844 
12.0775 -16.9792 4.22608 14.2955 -16.9523 0.781604 12.2041 -14.6317 -5 
14.4063 -16.1242 -2.17632 3.43791 -16.164 -0.76014 3.55974 -15.8665 4.1592 
1.20916 -15.4699 0.895161 3.43935 -14.5047 -5 0.939429 -16.3285 -2.23036 
27.7992 6.82401 9.20038 28.9022 6.00467 12.0812 26.6487 3.61377 1.38312 
26.2221 0.992017 0.609149 27.6876 8.10296 11.2066 25.3363 2.87298 -0.239474 
28.4452 -2.92138 15.1908 29.0277 -5.80547 14.4197 27.6474 -4.917 16.2721 
28.5976 -8.89863 5.64157 27.4534 -7.17836 3.19725 27.5437 -9.56486 3.46113 
13.317 17.2865 4.82482 11.4752 17.8625 6.61751 12.6168 13.4716 -0.805353 
10.7404 13.1909 -2.22236 13.5513 17.665 6.79693 12.6782 12.5735 -2.40742 
2.94995 17.0829 7.14318 0.629998 17.3402 5.39066 0.741487 16.7634 7.60063 
1.26152 13.5213 0 3.45296 12.2794 -0.737373 1.48076 11.7171 -0.61558 
12.8231 8.43629 20 10.7068 10.9939 20 13.2906 1.95553 25 
11.1548 -0.16328 25 13.2492 10.9364 20 13.4886 -0.49486 25 
3.05928 13.9137 24.518 0.385277 11.4478 25 0.148986 13.7984 23.8983 
0.461497 1.74424 25 2.67953 -0.287109 25 0.35114 -0.694541 25 
-13.6631 7.36944 9.6203 -16.0672 7.39142 12.0538 -12.1107 3.98303 1.82485 
-12.2847 1.74471 0.148475 -13.9798 9.04577 11.4667 -10.9883 3.39261 0.177155 
-16.5114 -2.6363 15.9467 -16.9906 -6.05633 14.5463 -16.0209 -5.13199 17.2547 
-14.4569 -8.86418 4.61855 -13.7363 -7.11587 1.81576 -13.0628 -9.45749 2.50523 
13.8237 -18.6048 19.4619 11.3198 -16.6991 20 13.6732 -18.2403 10.2599 
11.5691 -18.52 8.20645 13.778 -16.1907 20 13.8276 -18.6094 7.92393 
2.75958 -16.3846 20 0.70905 -17.4677 18.3082 0.540983 -16.0622 20 
1.36159 -17.7776 9.76724 3.47341 -17.7668 7.92092 1.3175 -17.7484 7.51682 
15.6303 -3.08286 -14.7766 12.3694 -0.389937 -15 14.1267 -10.1556 -7.75085 
12.0496 -11.4528 -6.62305 15.5345 0.152815 -14.8865 13.9494 -11.2445 -5.87763 
-0.196933 -0.044417 -15 -1.80482 -2.63277 -12.6291 -1.84217 0.29893 -12.3591 
1.2183 -8.94961 -6.80988 3.60121 -10.3038 -5.79052 1.37232 -10.4606 -5.2087 
21.3308 14.0188 13.4219 18.8204 15.86 12.5546 18.7109 14.3502 15.258 
20.1586 6.05502 -5.81005 17.896 8.30476 -6.48388 18.6989 6.19986 -8.64979 
21.2688 -6.82284 20 18.6489 -5.59076 20.6145 18.6487 -8.4528 20 
21.8177 -15.8283 0 19.165 -17.2266 1.06848 19.1272 -15.5224 -1.73583 
-6.06936 18.0397 13.3279 -5.00397 15.5899 15.8471 -7.92576 14.9889 14.1097 
-2.88526 7.32593 -3.94798 -5.26009 6.00517 -4.14509 -2.862 5.19175 -5.22523 
-4.74707 -5.6949 20.4604 -7.61105 -7.08973 20 -4.72421 -8.77684 20 
-6.12738 -13.9029 0.658713 -3.60046 -15.019 1.54544 -4.19203 -15.0372 -1.71271 

POLYGONS 2048 8192
3 267 2 266 
3 75 267 666 
3 266 74 666 
3 27 408 410 
3 408 75 671 
3 186 410 671 
3 402 26 404 
3 74 402 668 
3 404 186 668 
3 10 307 309 
3 307 115 790 
3 117 309 790 
3 409 27 412 
3 115 409 792 
3 412 191 792 
3 47 529 531 
3 529 117 797 
3 191 531 797 
3 289 7 292 
3 97 289 736 
3 292 100 736 
3 26 403 406 
3 403 97 738 
3 188 406 738 
3 528 47 530 
3 100 528 746 
3 530 188 746 
3 259 0 258 
3 67 259 642 
3 258 66 642 
3 19 360 362 
3 360 67 647 
3 162 362 647 
3 354 18 356 
3 66 354 644 
3 356 162 644 
3 7 288 290 
3 288 96 732 
3 98 290 732 
3 361 19 364 
3 96 361 734 
3 364 167 734 
3 42 499 501 
3 499 98 741 
3 167 501 741 
3 282 6 284 
3 90 282 714 
3 284 92 714 
3 18 355 358 
3 355 90 716 
3 164 358 716 
3 498 42 500 
3 92 498 723 
3 500 164 723 
3 262 1 263 
3 70 262 654 
3 263 71 654 
3 22 378 380 
3 378 70 656 
3 174 380 656 
3 384 23 386 
3 71 384 659 
3 386 174 659 
3 6 283 286 
3 283 91 718 
3 94 286 718 
3 379 22 382 
3 91 379 720 
3 382 176 720 
3 44 510 512 
3 510 94 728 
3 176 512 728 
3 306 10 308 
3 114 306 786 
3 308 116 786 
3 23 385 388 
3 385 114 788 
3 179 388 788 
3 511 44 513 
3 116 511 795 
3 513 179 795 
3 268 2 267 
3 76 268 670 
3 267 75 670 
3 28 414 416 
3 414 76 674 
3 190 416 674 
3 408 27 411 
3 75 408 672 
3 411 190 672 
3 13 324 326 
3 324 132 840 
3 134 326 840 
3 415 28 418 
3 132 415 842 
3 418 194 842 
3 55 577 579 
3 577 134 849 
3 194 579 849 
3 307 10 311 
3 115 307 791 
3 311 119 791 
3 27 409 413 
3 409 115 793 
3 192 413 793 
3 576 55 578 
3 119 576 802 
3 578 192 802 
3 263 1 264 
3 71 263 658 
3 264 72 658 
3 23 384 387 
3 384 71 660 
3 178 387 660 
3 390 24 392 
3 72 390 662 
3 392 178 662 
3 10 306 310 
3 306 114 787 
3 118 310 787 
3 385 23 389 
3 114 385 789 
3 389 180 789 
3 54 570 572 
3 570 118 800 
3 180 572 800 
3 312 11 314 
3 120 312 804 
3 314 122 804 
3 24 391 394 
3 391 120 806 
3 182 394 806 
3 571 54 573 
3 122 571 813 
3 573 182 813 
3 270 3 271 
3 78 270 678 
3 271 79 678 
3 30 426 428 
3 426 78 680 
3 198 428 680 
3 432 31 434 
3 79 432 683 
3 434 198 683 
3 11 313 316 
3 313 121 808 
3 124 316 808 
3 427 30 430 
3 121 427 810 
3 430 200 810 
3 57 588 590 
3 588 124 818 
3 200 590 818 
3 325 13 327 
3 133 325 844 
3 327 135 844 
3 31 433 436 
3 433 133 846 
3 203 436 846 
3 589 57 591 
3 135 589 851 
3 591 203 851 
3 269 2 268 
3 77 269 673 
3 268 76 673 
3 29 420 423 
3 420 77 677 
3 193 423 677 
3 414 28 417 
3 76 414 675 
3 417 193 675 
3 14 330 334 
3 330 138 859 
3 142 334 859 
3 421 29 425 
3 138 421 861 
3 425 197 861 
3 60 607 609 
3 607 142 872 
3 197 609 872 
3 324 13 328 
3 132 324 841 
3 328 136 841 
3 28 415 419 
3 415 132 843 
3 195 419 843 
3 606 60 608 
3 136 606 854 
3 608 195 854 
3 271 3 272 
3 79 271 682 
3 272 80 682 
3 31 432 435 
3 432 79 684 
3 202 435 684 
3 438 32 440 
3 80 438 686 
3 440 202 686 
3 13 325 329 
3 325 133 845 
3 137 329 845 
3 433 31 437 
3 133 433 847 
3 437 204 847 
3 61 612 614 
3 612 137 856 
3 204 614 856 
3 336 15 338 
3 144 336 876 
3 338 146 876 
3 32 439 442 
3 439 144 878 
3 206 442 878 
3 613 61 615 
3 146 613 885 
3 615 206 885 
3 276 4 275 
3 84 276 694 
3 275 83 694 
3 36 462 464 
3 462 84 698 
3 214 464 698 
3 456 35 459 
3 83 456 696 
3 459 214 696 
3 15 337 339 
3 337 145 880 
3 147 339 880 
3 463 36 466 
3 145 463 882 
3 466 218 882 
3 62 619 621 
3 619 147 887 
3 218 621 887 
3 331 14 335 
3 139 331 863 
3 335 143 863 
3 35 457 461 
3 457 139 865 
3 216 461 865 
3 618 62 620 
3 143 618 874 
3 620 216 874 
3 266 2 269 
3 74 266 667 
3 269 77 667 
3 26 402 405 
3 402 74 669 
3 187 405 669 
3 420 29 422 
3 77 420 676 
3 422 187 676 
3 7 289 293 
3 289 97 737 
3 101 293 737 
3 403 26 407 
3 97 403 739 
3 407 189 739 
3 48 534 536 
3 534 101 748 
3 189 536 748 
3 330 14 332 
3 138 330 858 
3 332 140 858 
3 29 421 424 
3 421 138 860 
3 196 424 860 
3 535 48 537 
3 140 535 867 
3 537 196 867 
3 275 4 274 
3 83 275 690 
3 274 82 690 
3 35 456 458 
3 456 83 695 
3 210 458 695 
3 450 34 452 
3 82 450 692 
3 452 210 692 
3 14 331 333 
3 331 139 862 
3 141 333 862 
3 457 35 460 
3 139 457 864 
3 460 215 864 
3 50 547 549 
3 547 141 869 
3 215 549 869 
3 295 8 298 
3 103 295 754 
3 298 106 754 
3 34 451 454 
3 451 103 756 
3 212 454 756 
3 546 50 548 
3 106 546 764 
3 548 212 764 
3 260 0 259 
3 68 260 646 
3 259 67 646 
3 20 366 368 
3 366 68 650 
3 166 368 650 
3 360 19 363 
3 67 360 648 
3 363 166 648 
3 8 294 296 
3 294 102 750 
3 104 296 750 
3 367 20 370 
3 102 367 752 
3 370 170 752 
3 46 523 525 
3 523 104 759 
3 170 525 759 
3 288 7 291 
3 96 288 733 
3 291 99 733 
3 19 361 365 
3 361 96 735 
3 168 365 735 
3 522 46 524 
3 99 522 744 
3 524 168 744 
3 278 5 279 
3 86 278 702 
3 279 87 702 
3 38 474 476 
3 474 86 704 
3 222 476 704 
3 480 39 482 
3 87 480 707 
3 482 222 707 
3 9 301 304 
3 301 109 772 
3 112 304 772 
3 475 38 478 
3 109 475 774 
3 478 224 774 
3 52 558 560 
3 558 112 782 
3 224 560 782 
3 319 12 321 
3 127 319 826 
3 321 129 826 
3 39 481 484 
3 481 127 828 
3 227 484 828 
3 559 52 561 
3 129 559 833 
3 561 227 833 
3 265 1 262 
3 73 265 655 
3 262 70 655 
3 25 396 398 
3 396 73 664 
3 175 398 664 
3 378 22 381 
3 70 378 657 
3 381 175 657 
3 12 318 320 
3 318 126 822 
3 128 320 822 
3 397 25 400 
3 126 397 824 
3 400 184 824 
3 45 517 519 
3 517 128 831 
3 184 519 831 
3 283 6 287 
3 91 283 719 
3 287 95 719 
3 22 379 383 
3 379 91 721 
3 177 383 721 
3 516 45 518 
3 95 516 730 
3 518 177 730 
3 258 0 261 
3 66 258 643 
3 261 69 643 
3 18 354 357 
3 354 66 645 
3 163 357 645 
3 372 21 374 
3 69 372 652 
3 374 163 652 
3 6 282 285 
3 282 90 715 
3 93 285 715 
3 355 18 359 
3 90 355 717 
3 359 165 717 
3 43 504 506 
3 504 93 726 
3 165 506 726 
3 300 9 302 
3 108 300 768 
3 302 110 768 
3 21 373 376 
3 373 108 770 
3 172 376 770 
3 505 43 507 
3 110 505 777 
3 507 172 777 
3 279 5 280 
3 87 279 706 
3 280 88 706 
3 39 480 483 
3 480 87 708 
3 226 483 708 
3 486 40 488 
3 88 486 710 
3 488 226 710 
3 12 319 323 
3 319 127 827 
3 131 323 827 
3 481 39 485 
3 127 481 829 
3 485 228 829 
3 59 600 602 
3 600 131 838 
3 228 602 838 
3 343 16 345 
3 151 343 898 
3 345 153 898 
3 40 487 490 
3 487 151 900 
3 230 490 900 
3 601 59 603 
3 153 601 905 
3 603 230 905 
3 273 3 270 
3 81 273 679 
3 270 78 679 
3 33 444 446 
3 444 81 688 
3 199 446 688 
3 426 30 429 
3 78 426 681 
3 429 199 681 
3 16 342 344 
3 342 150 894 
3 152 344 894 
3 445 33 448 
3 150 445 896 
3 448 208 896 
3 58 595 597 
3 595 152 903 
3 208 597 903 
3 313 11 317 
3 121 313 809 
3 317 125 809 
3 30 427 431 
3 427 121 811 
3 201 431 811 
3 594 58 596 
3 125 594 820 
3 596 201 820 
3 264 1 265 
3 72 264 661 
3 265 73 661 
3 24 390 393 
3 390 72 663 
3 181 393 663 
3 396 25 399 
3 73 396 665 
3 399 181 665 
3 11 312 315 
3 312 120 805 
3 123 315 805 
3 391 24 395 
3 120 391 807 
3 395 183 807 
3 56 582 584 
3 582 123 816 
3 183 584 816 
3 318 12 322 
3 126 318 823 
3 322 130 823 
3 25 397 401 
3 397 126 825 
3 185 401 825 
3 583 56 585 
3 130 583 836 
3 585 185 836 
3 280 5 281 
3 88 280 709 
3 281 89 709 
3 40 486 489 
3 486 88 711 
3 229 489 711 
3 492 41 495 
3 89 492 713 
3 495 229 713 
3 16 343 347 
3 343 151 899 
3 155 347 899 
3 487 40 491 
3 151 487 901 
3 491 231 901 
3 65 636 638 
3 636 155 910 
3 231 638 910 
3 349 17 353 
3 157 349 917 
3 353 161 917 
3 41 493 497 
3 493 157 919 
3 233 497 919 
3 637 65 639 
3 161 637 928 
3 639 233 928 
3 277 4 276 
3 85 277 697 
3 276 84 697 
3 37 468 471 
3 468 85 701 
3 217 471 701 
3 462 36 465 
3 84 462 699 
3 465 217 699 
3 17 348 352 
3 348 156 913 
3 160 352 913 
3 469 37 473 
3 156 469 915 
3 473 221 915 
3 64 631 633 
3 631 160 926 
3 221 633 926 
3 337 15 341 
3 145 337 881 
3 341 149 881 
3 36 463 467 
3 463 145 883 
3 219 467 883 
3 630 64 632 
3 149 630 892 
3 632 219 892 
3 272 3 273 
3 80 272 685 
3 273 81 685 
3 32 438 441 
3 438 80 687 
3 205 441 687 
3 444 33 447 
3 81 444 689 
3 447 205 689 
3 15 336 340 
3 336 144 877 
3 148 340 877 
3 439 32 443 
3 144 439 879 
3 443 207 879 
3 63 624 626 
3 624 148 890 
3 207 626 890 
3 342 16 346 
3 150 342 895 
3 346 154 895 
3 33 445 449 
3 445 150 897 
3 209 449 897 
3 625 63 627 
3 154 625 908 
3 627 209 908 
3 281 5 278 
3 89 281 703 
3 278 86 703 
3 41 492 494 
3 492 89 712 
3 223 494 712 
3 474 38 477 
3 86 474 705 
3 477 223 705 
3 17 349 351 
3 349 157 916 
3 159 351 916 
3 493 41 496 
3 157 493 918 
3 496 232 918 
3 53 565 567 
3 565 159 923 
3 232 567 923 
3 301 9 305 
3 109 301 773 
3 305 113 773 
3 38 475 479 
3 475 109 775 
3 225 479 775 
3 564 53 566 
3 113 564 784 
3 566 225 784 
3 261 0 260 
3 69 261 649 
3 260 68 649 
3 21 372 375 
3 372 69 653 
3 169 375 653 
3 366 20 369 
3 68 366 651 
3 369 169 651 
3 9 300 303 
3 300 108 769 
3 111 303 769 
3 373 21 377 
3 108 373 771 
3 377 173 771 
3 49 541 543 
3 541 111 780 
3 173 543 780 
3 294 8 297 
3 102 294 751 
3 297 105 751 
3 20 367 371 
3 367 102 753 
3 171 371 753 
3 540 49 542 
3 105 540 762 
3 542 171 762 
3 274 4 277 
3 82 274 691 
3 277 85 691 
3 34 450 453 
3 450 82 693 
3 211 453 693 
3 468 37 470 
3 85 468 700 
3 470 211 700 
3 8 295 299 
3 295 103 755 
3 107 299 755 
3 451 34 455 
3 103 451 757 
3 455 213 757 
3 51 552 554 
3 552 107 766 
3 213 554 766 
3 348 17 350 
3 156 348 912 
3 350 158 912 
3 37 469 472 
3 469 156 914 
3 220 472 914 
3 553 51 555 
3 158 553 921 
3 555 220 921 
3 292 7 290 
3 100 292 740 
3 290 98 740 
3 47 528 532 
3 528 100 747 
3 235 532 747 
3 499 42 503 
3 98 499 742 
3 503 235 742 
3 284 6 286 
3 92 284 722 
3 286 94 722 
3 42 498 502 
3 498 92 724 
3 234 502 724 
3 510 44 514 
3 94 510 729 
3 514 234 729 
3 308 10 309 
3 116 308 794 
3 309 117 794 
3 44 511 515 
3 511 116 796 
3 238 515 796 
3 529 47 533 
3 117 529 798 
3 533 238 798 
3 311 10 310 
3 119 311 799 
3 310 118 799 
3 55 576 580 
3 576 119 803 
3 246 580 803 
3 570 54 574 
3 118 570 801 
3 574 246 801 
3 314 11 316 
3 122 314 812 
3 316 124 812 
3 54 571 575 
3 571 122 814 
3 247 575 814 
3 588 57 592 
3 124 588 819 
3 592 247 819 
3 327 13 326 
3 135 327 848 
3 326 134 848 
3 57 589 593 
3 589 135 852 
3 248 593 852 
3 577 55 581 
3 134 577 850 
3 581 248 850 
3 328 13 329 
3 136 328 853 
3 329 137 853 
3 60 606 610 
3 606 136 855 
3 252 610 855 
3 612 61 616 
3 137 612 857 
3 616 252 857 
3 338 15 339 
3 146 338 884 
3 339 147 884 
3 61 613 617 
3 613 146 886 
3 254 617 886 
3 619 62 623 
3 147 619 888 
3 623 254 888 
3 335 14 334 
3 143 335 871 
3 334 142 871 
3 62 618 622 
3 618 143 875 
3 253 622 875 
3 607 60 611 
3 142 607 873 
3 611 253 873 
3 332 14 333 
3 140 332 866 
3 333 141 866 
3 48 535 539 
3 535 140 868 
3 242 539 868 
3 547 50 551 
3 141 547 870 
3 551 242 870 
3 298 8 296 
3 106 298 758 
3 296 104 758 
3 50 546 550 
3 546 106 765 
3 241 550 765 
3 523 46 527 
3 104 523 760 
3 527 241 760 
3 291 7 293 
3 99 291 743 
3 293 101 743 
3 46 522 526 
3 522 99 745 
3 240 526 745 
3 534 48 538 
3 101 534 749 
3 538 240 749 
3 302 9 304 
3 110 302 776 
3 304 112 776 
3 43 505 509 
3 505 110 778 
3 237 509 778 
3 558 52 562 
3 112 558 783 
3 562 237 783 
3 321 12 320 
3 129 321 830 
3 320 128 830 
3 52 559 563 
3 559 129 834 
3 239 563 834 
3 517 45 521 
3 128 517 832 
3 521 239 832 
3 287 6 285 
3 95 287 725 
3 285 93 725 
3 45 516 520 
3 516 95 731 
3 236 520 731 
3 504 43 508 
3 93 504 727 
3 508 236 727 
3 345 16 344 
3 153 345 902 
3 344 152 902 
3 59 601 605 
3 601 153 906 
3 251 605 906 
3 595 58 599 
3 152 595 904 
3 599 251 904 
3 317 11 315 
3 125 317 815 
3 315 123 815 
3 58 594 598 
3 594 125 821 
3 249 598 821 
3 582 56 586 
3 123 582 817 
3 586 249 817 
3 322 12 323 
3 130 322 835 
3 323 131 835 
3 56 583 587 
3 583 130 837 
3 250 587 837 
3 600 59 604 
3 131 600 839 
3 604 250 839 
3 353 17 352 
3 161 353 925 
3 352 160 925 
3 65 637 641 
3 637 161 929 
3 257 641 929 
3 631 64 635 
3 160 631 927 
3 635 257 927 
3 341 15 340 
3 149 341 889 
3 340 148 889 
3 64 630 634 
3 630 149 893 
3 255 634 893 
3 624 63 628 
3 148 624 891 
3 628 255 891 
3 346 16 347 
3 154 346 907 
3 347 155 907 
3 63 625 629 
3 625 154 909 
3 256 629 909 
3 636 65 640 
3 155 636 911 
3 640 256 911 
3 305 9 303 
3 113 305 779 
3 303 111 779 
3 53 564 568 
3 564 113 785 
3 244 568 785 
3 541 49 545 
3 111 541 781 
3 545 244 781 
3 297 8 299 
3 105 297 761 
3 299 107 761 
3 49 540 544 
3 540 105 763 
3 243 544 763 
3 552 51 556 
3 107 552 767 
3 556 243 767 
3 350 17 351 
3 158 350 920 
3 351 159 920 
3 51 553 557 
3 553 158 922 
3 245 557 922 
3 565 53 569 
3 159 565 924 
3 569 245 924 
3 412 27 410 
3 191 412 955 
3 410 186 955 
3 404 26 406 
3 186 404 954 
3 406 188 954 
3 530 47 531 
3 188 530 958 
3 531 191 958 
3 364 19 362 
3 167 364 931 
3 362 162 931 
3 356 18 358 
3 162 356 930 
3 358 164 930 
3 500 42 501 
3 164 500 934 
3 501 167 934 
3 382 22 380 
3 176 382 942 
3 380 174 942 
3 386 23 388 
3 174 386 943 
3 388 179 943 
3 513 44 512 
3 179 513 946 
3 512 176 946 
3 418 28 416 
3 194 418 961 
3 416 190 961 
3 411 27 413 
3 190 411 960 
3 413 192 960 
3 578 55 579 
3 192 578 962 
3 579 194 962 
3 389 23 387 
3 180 389 948 
3 387 178 948 
3 392 24 394 
3 178 392 949 
3 394 182 949 
3 573 54 572 
3 182 573 950 
3 572 180 950 
3 430 30 428 
3 200 430 966 
3 428 198 966 
3 434 31 436 
3 198 434 967 
3 436 203 967 
3 591 57 590 
3 203 591 970 
3 590 200 970 
3 425 29 423 
3 197 425 964 
3 423 193 964 
3 60 609 608 
3 609 197 965 
3 195 608 965 
3 417 28 419 
3 193 417 963 
3 419 195 963 
3 437 31 435 
3 204 437 972 
3 435 202 972 
3 440 32 442 
3 202 440 973 
3 442 206 973 
3 615 61 614 
3 206 615 974 
3 614 204 974 
3 466 36 464 
3 218 466 985 
3 464 214 985 
3 459 35 461 
3 214 459 984 
3 461 216 984 
3 620 62 621 
3 216 620 986 
3 621 218 986 
3 407 26 405 
3 189 407 956 
3 405 187 956 
3 48 536 537 
3 536 189 959 
3 196 537 959 
3 422 29 424 
3 187 422 957 
3 424 196 957 
3 460 35 458 
3 215 460 979 
3 458 210 979 
3 452 34 454 
3 210 452 978 
3 454 212 978 
3 548 50 549 
3 212 548 982 
3 549 215 982 
3 370 20 368 
3 170 370 937 
3 368 166 937 
3 363 19 365 
3 166 363 936 
3 365 168 936 
3 524 46 525 
3 168 524 938 
3 525 170 938 
3 478 38 476 
3 224 478 990 
3 476 222 990 
3 482 39 484 
3 222 482 991 
3 484 227 991 
3 561 52 560 
3 227 561 994 
3 560 224 994 
3 400 25 398 
3 184 400 945 
3 398 175 945 
3 45 519 518 
3 519 184 947 
3 177 518 947 
3 381 22 383 
3 175 381 944 
3 383 177 944 
3 359 18 357 
3 165 359 932 
3 357 163 932 
3 43 506 507 
3 506 165 935 
3 172 507 935 
3 374 21 376 
3 163 374 933 
3 376 172 933 
3 485 39 483 
3 228 485 996 
3 483 226 996 
3 488 40 490 
3 226 488 997 
3 490 230 997 
3 603 59 602 
3 230 603 998 
3 602 228 998 
3 448 33 446 
3 208 448 969 
3 446 199 969 
3 58 597 596 
3 597 208 971 
3 201 596 971 
3 429 30 431 
3 199 429 968 
3 431 201 968 
3 395 24 393 
3 183 395 951 
3 393 181 951 
3 56 584 585 
3 584 183 953 
3 185 585 953 
3 399 25 401 
3 181 399 952 
3 401 185 952 
3 491 40 489 
3 231 491 999 
3 489 229 999 
3 65 638 639 
3 638 231 1001 
3 233 639 1001 
3 495 41 497 
3 229 495 1000 
3 497 233 1000 
3 473 37 471 
3 221 473 988 
3 471 217 988 
3 64 633 632 
3 633 221 989 
3 219 632 989 
3 465 36 467 
3 217 465 987 
3 467 219 987 
3 443 32 441 
3 207 443 975 
3 441 205 975 
3 447 33 449 
3 205 447 976 
3 449 209 976 
3 627 63 626 
3 209 627 977 
3 626 207 977 
3 496 41 494 
3 232 496 993 
3 494 223 993 
3 53 567 566 
3 567 232 995 
3 225 566 995 
3 477 38 479 
3 223 477 992 
3 479 225 992 
3 377 21 375 
3 173 377 940 
3 375 169 940 
3 49 543 542 
3 543 173 941 
3 171 542 941 
3 369 20 371 
3 169 369 939 
3 371 171 939 
3 455 34 453 
3 213 455 980 
3 453 211 980 
3 470 37 472 
3 211 470 981 
3 472 220 981 
3 555 51 554 
3 220 555 983 
3 554 213 983 
3 503 42 502 
3 235 503 1002 
3 502 234 1002 
3 47 532 533 
3 532 235 1004 
3 238 533 1004 
3 514 44 515 
3 234 514 1003 
3 515 238 1003 
3 574 54 575 
3 246 574 1014 
3 575 247 1014 
3 592 57 593 
3 247 592 1016 
3 593 248 1016 
3 581 55 580 
3 248 581 1015 
3 580 246 1015 
3 616 61 617 
3 252 616 1021 
3 617 254 1021 
3 623 62 622 
3 254 623 1022 
3 622 253 1022 
3 611 60 610 
3 253 611 1020 
3 610 252 1020 
3 551 50 550 
3 242 551 1010 
3 550 241 1010 
3 527 46 526 
3 241 527 1008 
3 526 240 1008 
3 538 48 539 
3 240 538 1009 
3 539 242 1009 
3 562 52 563 
3 237 562 1007 
3 563 239 1007 
3 43 509 508 
3 509 237 1005 
3 236 508 1005 
3 521 45 520 
3 239 521 1006 
3 520 236 1006 
3 599 58 598 
3 251 599 1018 
3 598 249 1018 
3 59 605 604 
3 605 251 1019 
3 250 604 1019 
3 586 56 587 
3 249 586 1017 
3 587 250 1017 
3 635 64 634 
3 257 635 1024 
3 634 255 1024 
3 65 641 640 
3 641 257 1025 
3 256 640 1025 
3 628 63 629 
3 255 628 1023 
3 629 256 1023 
3 545 49 544 
3 244 545 1011 
3 544 243 1011 
3 53 568 569 
3 568 244 1013 
3 245 569 1013 
3 556 51 557 
3 243 556 1012 
3 557 245 1012 
3 671 75 666 
3 666 74 668 
3 668 186 671 
3 790 115 792 
3 792 191 797 
3 797 117 790 
3 736 100 746 
3 97 736 738 
3 746 188 738 
3 647 67 642 
3 642 66 644 
3 644 162 647 
3 732 96 734 
3 734 167 741 
3 741 98 732 
3 714 92 723 
3 90 714 716 
3 723 164 716 
3 656 70 654 
3 654 71 659 
3 659 174 656 
3 728 94 718 
3 718 91 720 
3 720 176 728 
3 786 116 795 
3 114 786 788 
3 795 179 788 
3 674 76 670 
3 670 75 672 
3 672 190 674 
3 849 134 840 
3 840 132 842 
3 842 194 849 
3 791 119 802 
3 115 791 793 
3 802 192 793 
3 660 71 658 
3 658 72 662 
3 662 178 660 
3 787 114 789 
3 789 180 800 
3 800 118 787 
3 804 122 813 
3 120 804 806 
3 813 182 806 
3 680 78 678 
3 678 79 683 
3 683 198 680 
3 818 124 808 
3 808 121 810 
3 810 200 818 
3 844 135 851 
3 133 844 846 
3 851 203 846 
3 677 77 673 
3 193 677 675 
3 673 76 675 
3 859 138 861 
3 142 859 872 
3 861 197 872 
3 841 136 854 
3 132 841 843 
3 854 195 843 
3 684 79 682 
3 682 80 686 
3 686 202 684 
3 845 133 847 
3 847 204 856 
3 856 137 845 
3 876 146 885 
3 144 876 878 
3 885 206 878 
3 698 84 694 
3 694 83 696 
3 696 214 698 
3 887 147 880 
3 880 145 882 
3 882 218 887 
3 863 143 874 
3 139 863 865 
3 874 216 865 
3 669 74 667 
3 187 669 676 
3 667 77 676 
3 737 97 739 
3 101 737 748 
3 739 189 748 
3 867 196 860 
3 140 867 858 
3 860 138 858 
3 695 83 690 
3 690 82 692 
3 692 210 695 
3 862 139 864 
3 864 215 869 
3 869 141 862 
3 754 106 764 
3 103 754 756 
3 764 212 756 
3 650 68 646 
3 646 67 648 
3 648 166 650 
3 759 104 750 
3 750 102 752 
3 752 170 759 
3 733 99 744 
3 96 733 735 
3 744 168 735 
3 704 86 702 
3 702 87 707 
3 707 222 704 
3 782 112 772 
3 772 109 774 
3 774 224 782 
3 826 129 833 
3 127 826 828 
3 833 227 828 
3 664 73 655 
3 175 664 657 
3 655 70 657 
3 831 128 822 
3 822 126 824 
3 824 184 831 
3 719 95 730 
3 91 719 721 
3 730 177 721 
3 645 66 643 
3 163 645 652 
3 643 69 652 
3 715 90 717 
3 93 715 726 
3 717 165 726 
3 777 172 770 
3 110 777 768 
3 770 108 768 
3 708 87 706 
3 706 88 710 
3 710 226 708 
3 827 127 829 
3 829 228 838 
3 838 131 827 
3 898 153 905 
3 151 898 900 
3 905 230 900 
3 688 81 679 
3 199 688 681 
3 679 78 681 
3 894 150 896 
3 152 894 903 
3 896 208 903 
3 809 125 820 
3 121 809 811 
3 820 201 811 
3 663 72 661 
3 181 663 665 
3 661 73 665 
3 816 123 805 
3 805 120 807 
3 807 183 816 
3 825 126 823 
3 185 825 836 
3 823 130 836 
3 711 88 709 
3 229 711 713 
3 709 89 713 
3 910 155 899 
3 899 151 901 
3 901 231 910 
3 928 233 919 
3 161 928 917 
3 919 157 917 
3 701 85 697 
3 217 701 699 
3 697 84 699 
3 913 156 915 
3 160 913 926 
3 915 221 926 
3 881 149 892 
3 145 881 883 
3 892 219 883 
3 687 80 685 
3 685 81 689 
3 689 205 687 
3 877 144 879 
3 879 207 890 
3 890 148 877 
3 895 154 908 
3 150 895 897 
3 908 209 897 
3 712 89 703 
3 223 712 705 
3 703 86 705 
3 916 157 918 
3 159 916 923 
3 918 232 923 
3 773 113 784 
3 109 773 775 
3 784 225 775 
3 653 69 649 
3 169 653 651 
3 649 68 651 
3 769 108 771 
3 111 769 780 
3 771 173 780 
3 751 105 762 
3 102 751 753 
3 762 171 753 
3 693 82 691 
3 691 85 700 
3 700 211 693 
3 755 103 757 
3 757 213 766 
3 766 107 755 
3 912 158 921 
3 156 912 914 
3 921 220 914 
3 742 235 747 
3 747 100 740 
3 740 98 742 
3 724 92 722 
3 234 724 729 
3 722 94 729 
3 796 116 794 
3 794 117 798 
3 798 238 796 
3 803 119 799 
3 246 803 801 
3 799 118 801 
3 814 122 812 
3 247 814 819 
3 812 124 819 
3 852 135 848 
3 848 134 850 
3 850 248 852 
3 855 136 853 
3 252 855 857 
3 853 137 857 
3 886 146 884 
3 884 147 888 
3 888 254 886 
3 873 253 875 
3 875 143 871 
3 871 142 873 
3 868 140 866 
3 242 868 870 
3 866 141 870 
3 765 106 758 
3 758 104 760 
3 760 241 765 
3 749 240 745 
3 745 99 743 
3 743 101 749 
3 783 237 778 
3 778 110 776 
3 776 112 783 
3 834 129 830 
3 239 834 832 
3 830 128 832 
3 731 95 725 
3 725 93 727 
3 727 236 731 
3 904 251 906 
3 906 153 902 
3 902 152 904 
3 821 125 815 
3 249 821 817 
3 815 123 817 
3 837 130 835 
3 835 131 839 
3 839 250 837 
3 927 257 929 
3 929 161 925 
3 925 160 927 
3 893 149 889 
3 255 893 891 
3 889 148 891 
3 909 154 907 
3 907 155 911 
3 911 256 909 
3 781 244 785 
3 785 113 779 
3 779 111 781 
3 763 105 761 
3 243 763 767 
3 761 107 767 
3 922 158 920 
3 920 159 924 
3 924 245 922 
3 955 186 954 
3 191 955 958 
3 954 188 958 
3 931 162 930 
3 167 931 934 
3 930 164 934 
3 942 174 943 
3 176 942 946 
3 943 179 946 
3 961 190 960 
3 194 961 962 
3 960 192 962 
3 948 178 949 
3 180 948 950 
3 949 182 950 
3 966 198 967 
3 200 966 970 
3 967 203 970 
3 963 195 965 
3 193 963 964 
3 965 197 964 
3 972 202 973 
3 204 972 974 
3 973 206 974 
3 985 214 984 
3 218 985 986 
3 984 216 986 
3 957 196 959 
3 187 957 956 
3 959 189 956 
3 979 210 978 
3 215 979 982 
3 978 212 982 
3 937 166 936 
3 170 937 938 
3 936 168 938 
3 990 222 991 
3 224 990 994 
3 991 227 994 
3 944 177 947 
3 175 944 945 
3 947 184 945 
3 933 172 935 
3 163 933 932 
3 935 165 932 
3 996 226 997 
3 228 996 998 
3 997 230 998 
3 968 201 971 
3 199 968 969 
3 971 208 969 
3 952 185 953 
3 181 952 951 
3 953 183 951 
3 1000 233 1001 
3 229 1000 999 
3 1001 231 999 
3 987 219 989 
3 217 987 988 
3 989 221 988 
3 975 205 976 
3 207 975 977 
3 976 209 977 
3 992 225 995 
3 223 992 993 
3 995 232 993 
3 939 171 941 
3 169 939 940 
3 941 173 940 
3 980 211 981 
3 213 980 983 
3 981 220 983 
3 1003 238 1004 
3 234 1003 1002 
3 1004 235 1002 
3 1014 247 1016 
3 246 1014 1015 
3 1016 248 1015 
3 1021 254 1022 
3 252 1021 1020 
3 1022 253 1020 
3 1010 241 1008 
3 242 1010 1009 
3 1008 240 1009 
3 1006 236 1005 
3 239 1006 1007 
3 1005 237 1007 
3 1017 250 1019 
3 249 1017 1018 
3 1019 251 1018 
3 1023 256 1025 
3 255 1023 1024 
3 1025 257 1024 
3 1012 245 1013 
3 243 1012 1011 
3 1013 244 1011 
3 267 266 666 
3 408 671 410 
3 402 404 668 
3 307 790 309 
3 412 792 409 
3 531 529 797 
3 289 292 736 
3 406 403 738 
3 528 530 746 
3 259 258 642 
3 360 647 362 
3 354 356 644 
3 288 732 290 
3 364 734 361 
3 501 499 741 
3 282 284 714 
3 358 355 716 
3 723 498 500 
3 262 263 654 
3 380 378 656 
3 384 386 659 
3 286 283 718 
3 379 382 720 
3 510 728 512 
3 306 308 786 
3 388 385 788 
3 795 511 513 
3 268 267 670 
3 416 414 674 
3 408 411 672 
3 326 324 840 
3 415 418 842 
3 579 577 849 
3 307 311 791 
3 413 409 793 
3 802 576 578 
3 263 264 658 
3 384 660 387 
3 390 392 662 
3 306 787 310 
3 389 789 385 
3 572 570 800 
3 312 314 804 
3 394 391 806 
3 813 571 573 
3 270 271 678 
3 428 426 680 
3 432 434 683 
3 316 313 808 
3 427 430 810 
3 588 818 590 
3 325 327 844 
3 436 433 846 
3 851 589 591 
3 673 269 268 
3 423 420 677 
3 414 417 675 
3 334 330 859 
3 861 421 425 
3 609 607 872 
3 324 328 841 
3 419 415 843 
3 606 608 854 
3 271 272 682 
3 432 684 435 
3 438 440 686 
3 325 845 329 
3 437 847 433 
3 614 612 856 
3 336 338 876 
3 442 439 878 
3 885 613 615 
3 276 275 694 
3 464 462 698 
3 456 459 696 
3 339 337 880 
3 463 466 882 
3 619 887 621 
3 331 335 863 
3 461 457 865 
3 874 618 620 
3 667 266 269 
3 405 402 669 
3 422 676 420 
3 293 289 737 
3 739 403 407 
3 536 534 748 
3 332 858 330 
3 421 860 424 
3 535 537 867 
3 275 274 690 
3 456 695 458 
3 450 452 692 
3 331 862 333 
3 460 864 457 
3 549 547 869 
3 295 298 754 
3 454 451 756 
3 764 546 548 
3 260 259 646 
3 368 366 650 
3 360 363 648 
3 296 294 750 
3 367 370 752 
3 523 759 525 
3 288 291 733 
3 365 361 735 
3 744 522 524 
3 278 279 702 
3 476 474 704 
3 480 482 707 
3 304 301 772 
3 475 478 774 
3 560 558 782 
3 319 321 826 
3 484 481 828 
3 833 559 561 
3 655 265 262 
3 398 396 664 
3 378 381 657 
3 320 318 822 
3 397 400 824 
3 519 517 831 
3 283 287 719 
3 383 379 721 
3 730 516 518 
3 643 258 261 
3 357 354 645 
3 374 652 372 
3 285 282 715 
3 717 355 359 
3 506 504 726 
3 302 768 300 
3 373 770 376 
3 505 507 777 
3 279 280 706 
3 480 708 483 
3 486 488 710 
3 319 827 323 
3 485 829 481 
3 602 600 838 
3 343 345 898 
3 490 487 900 
3 601 603 905 
3 679 273 270 
3 446 444 688 
3 426 429 681 
3 344 342 894 
3 896 445 448 
3 597 595 903 
3 313 317 809 
3 431 427 811 
3 820 594 596 
3 661 264 265 
3 393 390 663 
3 665 396 399 
3 315 312 805 
3 391 395 807 
3 582 816 584 
3 823 318 322 
3 401 397 825 
3 585 836 583 
3 709 280 281 
3 489 486 711 
3 495 713 492 
3 347 343 899 
3 487 491 901 
3 638 636 910 
3 353 917 349 
3 493 919 497 
3 637 639 928 
3 697 277 276 
3 471 468 701 
3 462 465 699 
3 352 348 913 
3 915 469 473 
3 633 631 926 
3 337 341 881 
3 467 463 883 
3 892 630 632 
3 272 273 685 
3 438 687 441 
3 444 447 689 
3 336 877 340 
3 443 879 439 
3 626 624 890 
3 342 346 895 
3 449 445 897 
3 908 625 627 
3 703 281 278 
3 494 492 712 
3 474 477 705 
3 351 349 916 
3 918 493 496 
3 567 565 923 
3 301 305 773 
3 479 475 775 
3 564 566 784 
3 649 261 260 
3 375 372 653 
3 366 369 651 
3 303 300 769 
3 771 373 377 
3 543 541 780 
3 294 297 751 
3 371 367 753 
3 762 540 542 
3 274 277 691 
3 450 693 453 
3 468 470 700 
3 295 755 299 
3 455 757 451 
3 554 552 766 
3 348 350 912 
3 472 469 914 
3 921 553 555 
3 740 292 290 
3 532 528 747 
3 742 499 503 
3 722 284 286 
3 502 498 724 
3 514 729 510 
3 308 309 794 
3 511 796 515 
3 529 533 798 
3 799 311 310 
3 580 576 803 
3 574 801 570 
3 812 314 316 
3 575 571 814 
3 592 819 588 
3 327 326 848 
3 589 852 593 
3 577 581 850 
3 853 328 329 
3 610 606 855 
3 616 857 612 
3 338 339 884 
3 613 886 617 
3 619 623 888 
3 871 335 334 
3 622 618 875 
3 873 607 611 
3 866 332 333 
3 539 535 868 
3 551 870 547 
3 298 296 758 
3 546 765 550 
3 523 527 760 
3 743 291 293 
3 526 522 745 
3 749 534 538 
3 776 302 304 
3 509 505 778 
3 783 558 562 
3 830 321 320 
3 563 559 834 
3 521 832 517 
3 287 285 725 
3 516 731 520 
3 504 508 727 
3 902 345 344 
3 605 601 906 
3 904 595 599 
3 815 317 315 
3 598 594 821 
3 586 817 582 
3 322 323 835 
3 583 837 587 
3 600 604 839 
3 925 353 352 
3 641 637 929 
3 927 631 635 
3 889 341 340 
3 634 630 893 
3 628 891 624 
3 346 347 907 
3 625 909 629 
3 636 640 911 
3 779 305 303 
3 568 564 785 
3 781 541 545 
3 761 297 299 
3 544 540 763 
3 556 767 552 
3 350 351 920 
3 553 922 557 
3 565 569 924 
3 955 412 410 
3 954 404 406 
3 530 531 958 
3 931 364 362 
3 930 356 358 
3 500 501 934 
3 942 382 380 
3 943 386 388 
3 513 512 946 
3 961 418 416 
3 960 411 413 
3 578 579 962 
3 948 389 387 
3 949 392 394 
3 573 572 950 
3 966 430 428 
3 967 434 436 
3 591 590 970 
3 423 964 425 
3 609 965 608 
3 417 419 963 
3 972 437 435 
3 973 440 442 
3 615 614 974 
3 985 466 464 
3 984 459 461 
3 620 621 986 
3 405 956 407 
3 536 959 537 
3 422 424 957 
3 979 460 458 
3 978 452 454 
3 548 549 982 
3 937 370 368 
3 936 363 365 
3 524 525 938 
3 990 478 476 
3 991 482 484 
3 561 560 994 
3 398 945 400 
3 519 947 518 
3 381 383 944 
3 357 932 359 
3 506 935 507 
3 374 376 933 
3 996 485 483 
3 997 488 490 
3 603 602 998 
3 446 969 448 
3 597 971 596 
3 429 431 968 
3 393 951 395 
3 584 953 585 
3 399 401 952 
3 489 999 491 
3 638 1001 639 
3 495 497 1000 
3 471 988 473 
3 633 989 632 
3 465 467 987 
3 975 443 441 
3 976 447 449 
3 627 626 977 
3 494 993 496 
3 567 995 566 
3 477 479 992 
3 375 940 377 
3 543 941 542 
3 369 371 939 
3 980 455 453 
3 981 470 472 
3 555 554 983 
3 502 1002 503 
3 532 1004 533 
3 514 515 1003 
3 1014 574 575 
3 1016 592 593 
3 581 580 1015 
3 1021 616 617 
3 1022 623 622 
3 611 610 1020 
3 1010 551 550 
3 1008 527 526 
3 538 539 1009 
3 563 1007 562 
3 509 1005 508 
3 521 520 1006 
3 598 1018 599 
3 605 1019 604 
3 586 587 1017 
3 634 1024 635 
3 641 1025 640 
3 628 629 1023 
3 544 1011 545 
3 568 1013 569 
3 556 557 1012 
3 671 666 668 
3 790 792 797 
3 746 738 736 
3 647 642 644 
3 732 734 741 
3 723 716 714 
3 656 654 659 
3 728 718 720 
3 795 788 786 
3 674 670 672 
3 849 840 842 
3 802 793 791 
3 660 658 662 
3 787 789 800 
3 813 806 804 
3 680 678 683 
3 818 808 810 
3 851 846 844 
3 673 675 677 
3 861 872 859 
3 854 843 841 
3 684 682 686 
3 845 847 856 
3 885 878 876 
3 698 694 696 
3 887 880 882 
3 874 865 863 
3 667 676 669 
3 739 748 737 
3 860 858 867 
3 695 690 692 
3 862 864 869 
3 764 756 754 
3 650 646 648 
3 759 750 752 
3 744 735 733 
3 704 702 707 
3 782 772 774 
3 833 828 826 
3 655 657 664 
3 831 822 824 
3 730 721 719 
3 643 652 645 
3 717 726 715 
3 770 768 777 
3 708 706 710 
3 827 829 838 
3 905 900 898 
3 679 681 688 
3 896 903 894 
3 820 811 809 
3 661 665 663 
3 816 805 807 
3 823 836 825 
3 709 713 711 
3 910 899 901 
3 919 917 928 
3 697 699 701 
3 915 926 913 
3 892 883 881 
3 687 685 689 
3 877 879 890 
3 908 897 895 
3 703 705 712 
3 918 923 916 
3 784 775 773 
3 649 651 653 
3 771 780 769 
3 762 753 751 
3 693 691 700 
3 755 757 766 
3 921 914 912 
3 742 747 740 
3 722 729 724 
3 796 794 798 
3 799 801 803 
3 812 819 814 
3 852 848 850 
3 853 857 855 
3 886 884 888 
3 873 875 871 
3 866 870 868 
3 765 758 760 
3 749 745 743 
3 783 778 776 
3 830 832 834 
3 731 725 727 
3 904 906 902 
3 815 817 821 
3 837 835 839 
3 927 929 925 
3 889 891 893 
3 909 907 911 
3 781 785 779 
3 761 767 763 
3 922 920 924 
3 954 958 955 
3 930 934 931 
3 943 946 942 
3 960 962 961 
3 949 950 948 
3 967 970 966 
3 965 964 963 
3 973 974 972 
3 984 986 985 
3 959 956 957 
3 978 982 979 
3 936 938 937 
3 991 994 990 
3 947 945 944 
3 935 932 933 
3 997 998 996 
3 971 969 968 
3 953 951 952 
3 1001 999 1000 
3 989 988 987 
3 976 977 975 
3 995 993 992 
3 941 940 939 
3 981 983 980 
3 1004 1002 1003 
3 1016 1015 1014 
3 1022 1020 1021 
3 1008 1009 1010 
3 1005 1007 1006 
3 1019 1018 1017 
3 1025 1024 1023 
3 1013 1011 1012 

