%!PS-Adobe-2.0 EPSF-2.0
%%Title: StreamingConceptDiagram.fig
%%Creator: fig2dev Version 3.2 Patchlevel 5-alpha7
%%CreationDate: Thu Jul  5 18:03:49 2007
%%For: ibanez@zion (Luis Ibanez,,(518) 371 3971 x 112,)
%%BoundingBox: 0 0 651 139
%Magnification: 1.0000
%%EndComments
/$F2psDict 200 dict def
$F2psDict begin
$F2psDict /mtrx matrix put
/col-1 {0 setgray} bind def
/col0 {0.000 0.000 0.000 srgb} bind def
/col1 {0.000 0.000 1.000 srgb} bind def
/col2 {0.000 1.000 0.000 srgb} bind def
/col3 {0.000 1.000 1.000 srgb} bind def
/col4 {1.000 0.000 0.000 srgb} bind def
/col5 {1.000 0.000 1.000 srgb} bind def
/col6 {1.000 1.000 0.000 srgb} bind def
/col7 {1.000 1.000 1.000 srgb} bind def
/col8 {0.000 0.000 0.560 srgb} bind def
/col9 {0.000 0.000 0.690 srgb} bind def
/col10 {0.000 0.000 0.820 srgb} bind def
/col11 {0.530 0.810 1.000 srgb} bind def
/col12 {0.000 0.560 0.000 srgb} bind def
/col13 {0.000 0.690 0.000 srgb} bind def
/col14 {0.000 0.820 0.000 srgb} bind def
/col15 {0.000 0.560 0.560 srgb} bind def
/col16 {0.000 0.690 0.690 srgb} bind def
/col17 {0.000 0.820 0.820 srgb} bind def
/col18 {0.560 0.000 0.000 srgb} bind def
/col19 {0.690 0.000 0.000 srgb} bind def
/col20 {0.820 0.000 0.000 srgb} bind def
/col21 {0.560 0.000 0.560 srgb} bind def
/col22 {0.690 0.000 0.690 srgb} bind def
/col23 {0.820 0.000 0.820 srgb} bind def
/col24 {0.500 0.190 0.000 srgb} bind def
/col25 {0.630 0.250 0.000 srgb} bind def
/col26 {0.750 0.380 0.000 srgb} bind def
/col27 {1.000 0.500 0.500 srgb} bind def
/col28 {1.000 0.630 0.630 srgb} bind def
/col29 {1.000 0.750 0.750 srgb} bind def
/col30 {1.000 0.880 0.880 srgb} bind def
/col31 {1.000 0.840 0.000 srgb} bind def

end
save
newpath 0 139 moveto 0 0 lineto 651 0 lineto 651 139 lineto closepath clip newpath
-16.3 234.2 translate
1 -1 scale

/cp {closepath} bind def
/ef {eofill} bind def
/gr {grestore} bind def
/gs {gsave} bind def
/sa {save} bind def
/rs {restore} bind def
/l {lineto} bind def
/m {moveto} bind def
/rm {rmoveto} bind def
/n {newpath} bind def
/s {stroke} bind def
/sh {show} bind def
/slc {setlinecap} bind def
/slj {setlinejoin} bind def
/slw {setlinewidth} bind def
/srgb {setrgbcolor} bind def
/rot {rotate} bind def
/sc {scale} bind def
/sd {setdash} bind def
/ff {findfont} bind def
/sf {setfont} bind def
/scf {scalefont} bind def
/sw {stringwidth} bind def
/tr {translate} bind def
/tnt {dup dup currentrgbcolor
  4 -2 roll dup 1 exch sub 3 -1 roll mul add
  4 -2 roll dup 1 exch sub 3 -1 roll mul add
  4 -2 roll dup 1 exch sub 3 -1 roll mul add srgb}
  bind def
/shd {dup dup currentrgbcolor 4 -2 roll mul 4 -2 roll mul
  4 -2 roll mul srgb} bind def
/$F2psBegin {$F2psDict begin /$F2psEnteredState save def} def
/$F2psEnd {$F2psEnteredState restore end} def

$F2psBegin
10 setmiterlimit
0 slj 0 slc
 0.06299 0.06299 sc
%
% Fig objects follow
%
% 
% here starts figure with depth 50
% Polyline
0 slj
0 slc
7.500 slw
n 270 1530 m 2025 1530 l 2025 3375 l 270 3375 l
 cp gs col0 s gr 
% Polyline
n 315 1575 m 1125 1575 l 1125 2430 l 315 2430 l
 cp gs col7 0.80 shd ef gr gs col0 s gr 
% Polyline
n 1170 1575 m 1980 1575 l 1980 2430 l 1170 2430 l
 cp gs col7 0.80 shd ef gr gs col0 s gr 
% Polyline
n 315 2475 m 1125 2475 l 1125 3330 l 315 3330 l
 cp gs col7 0.80 shd ef gr gs col0 s gr 
% Polyline
n 1170 2475 m 1980 2475 l 1980 3330 l 1170 3330 l
 cp gs col7 0.80 shd ef gr gs col0 s gr 
/Helvetica ff 190.50 scf sf
1170 3645 m
gs 1 -1 sc (Input Image) dup sw pop 2 div neg 0 rm  col0 sh gr
% Polyline
n 2715 1935 m 2610 1935 2610 2865 105 arcto 4 {pop} repeat
  2610 2970 4080 2970 105 arcto 4 {pop} repeat
  4185 2970 4185 2040 105 arcto 4 {pop} repeat
  4185 1935 2715 1935 105 arcto 4 {pop} repeat
 cp gs col0 s gr 
% Polyline
n 3240 2025 m 4050 2025 l 4050 2880 l 3240 2880 l
 cp gs col7 0.80 shd ef gr gs col0 s gr 
/Helvetica ff 190.50 scf sf
3420 3240 m
gs 1 -1 sc (Reader) dup sw pop 2 div neg 0 rm  col0 sh gr
% Polyline
n 4740 1935 m 4635 1935 4635 2865 105 arcto 4 {pop} repeat
  4635 2970 6105 2970 105 arcto 4 {pop} repeat
  6210 2970 6210 2040 105 arcto 4 {pop} repeat
  6210 1935 4740 1935 105 arcto 4 {pop} repeat
 cp gs col0 s gr 
% Polyline
n 5265 2025 m 6075 2025 l 6075 2880 l 5265 2880 l
 cp gs col7 0.80 shd ef gr gs col0 s gr 
/Helvetica ff 190.50 scf sf
5445 3240 m
gs 1 -1 sc (Filter A) dup sw pop 2 div neg 0 rm  col0 sh gr
% Polyline
n 8820 1530 m 10575 1530 l 10575 3375 l 8820 3375 l
 cp gs col0 s gr 
% Polyline
n 8865 1575 m 9675 1575 l 9675 2430 l 8865 2430 l
 cp gs col7 0.80 shd ef gr gs col0 s gr 
% Polyline
n 9720 1575 m 10530 1575 l 10530 2430 l 9720 2430 l
 cp gs col7 0.80 shd ef gr gs col0 s gr 
% Polyline
n 8865 2475 m 9675 2475 l 9675 3330 l 8865 3330 l
 cp gs col7 0.80 shd ef gr gs col0 s gr 
% Polyline
n 9720 2475 m 10530 2475 l 10530 3330 l 9720 3330 l
 cp gs col7 0.80 shd ef gr gs col0 s gr 
/Helvetica ff 190.50 scf sf
9720 3645 m
gs 1 -1 sc (Output Image) dup sw pop 2 div neg 0 rm  col0 sh gr
% Polyline
n 6765 1935 m 6660 1935 6660 2865 105 arcto 4 {pop} repeat
  6660 2970 8130 2970 105 arcto 4 {pop} repeat
  8235 2970 8235 2040 105 arcto 4 {pop} repeat
  8235 1935 6765 1935 105 arcto 4 {pop} repeat
 cp gs col0 s gr 
% Polyline
n 7290 2025 m 8100 2025 l 8100 2880 l 7290 2880 l
 cp gs col7 0.80 shd ef gr gs col0 s gr 
/Helvetica ff 190.50 scf sf
7470 3240 m
gs 1 -1 sc (StreamingImageFilter) dup sw pop 2 div neg 0 rm  col0 sh gr
% Polyline
gs  clippath
2508 2460 m 2625 2460 l 2625 2400 l 2508 2400 l 2508 2400 l 2598 2430 l 2508 2460 l cp
eoclip
n 2025 2430 m
 2610 2430 l gs col0 s gr gr

% arrowhead
n 2508 2460 m 2598 2430 l 2508 2400 l 2478 2430 l 2508 2460 l 
 cp gs 0.00 setgray ef gr  col0 s
% Polyline
gs  clippath
4533 2460 m 4650 2460 l 4650 2400 l 4533 2400 l 4533 2400 l 4623 2430 l 4533 2460 l cp
eoclip
n 4185 2430 m
 4635 2430 l gs col0 s gr gr

% arrowhead
n 4533 2460 m 4623 2430 l 4533 2400 l 4503 2430 l 4533 2460 l 
 cp gs 0.00 setgray ef gr  col0 s
% Polyline
gs  clippath
6558 2460 m 6675 2460 l 6675 2400 l 6558 2400 l 6558 2400 l 6648 2430 l 6558 2460 l cp
eoclip
n 6210 2430 m
 6660 2430 l gs col0 s gr gr

% arrowhead
n 6558 2460 m 6648 2430 l 6558 2400 l 6528 2430 l 6558 2460 l 
 cp gs 0.00 setgray ef gr  col0 s
% Polyline
gs  clippath
8718 2460 m 8835 2460 l 8835 2400 l 8718 2400 l 8718 2400 l 8808 2430 l 8718 2460 l cp
eoclip
n 8235 2430 m
 8820 2430 l gs col0 s gr gr

% arrowhead
n 8718 2460 m 8808 2430 l 8718 2400 l 8688 2430 l 8718 2460 l 
 cp gs 0.00 setgray ef gr  col0 s
% here ends figure;
% 
% here starts figure with depth 40
% Arc
15.000 slw
0 slc
gs  clippath
3417 2370 m 3491 2502 l 3543 2473 l 3469 2341 l 3469 2341 l 3502 2461 l 3417 2370 l cp
eoclip
n 2309.1 3071.0 1340.6 -125.5325 -26.3950 arc
gs col0 s gr
 gr

% arrowhead
0 slj
7.500 slw
n 3417 2370 m 3502 2461 l 3469 2341 l 3417 2370 l  cp gs 0.00 setgray ef gr  col0 s
% here ends figure;
$F2psEnd
rs
showpage
%%Trailer
%EOF
