A D/air////
A D/alan////
A D/bane////
A D/biff////
A D/bin////
A D/coil////
A D/dye////
A D/echo////
A D/ell////
A D/gage////
A D/hest////
A D/hex////
A D/hoover////
A D/limn////
A D/make////
A D/matlab////
A D/mite////
A D/moss////
A D/nrrd////
A D/push////
A D/seek////
A D/ten////
A D/unrrdu////
