0.000000  0.000000  1.000000
0.056698  -0.174499  0.983024
0.056698  0.174499  0.983024
-0.148438  0.107846  0.983024
0.183479  0.000000  0.983024
-0.148438  -0.107846  0.983024
-0.092817  0.285662  0.953825
0.242999  0.176549  0.953825
-0.300363  0.000000  0.953825
0.242999  -0.176549  0.953825
-0.092817  -0.285662  0.953825
0.111471  0.343074  0.932671
-0.291836  0.212031  0.932671
0.360729  0.000000  0.932671
-0.291836  -0.212031  0.932671
0.111471  -0.343074  0.932671
0.434900  0.182170  0.881859
-0.458919  -0.108249  0.881859
-0.244765  -0.403007  0.881859
-0.038862  -0.469908  0.881859
-0.038862  0.469908  0.881859
-0.244765  0.403007  0.881859
0.307646  0.357321  0.881859
-0.458919  0.108249  0.881859
0.434900  -0.182170  0.881859
0.307646  -0.357321  0.881859
0.162460  -0.500000  0.850651
0.162460  0.500000  0.850651
-0.425325  0.309017  0.850651
0.525731  0.000000  0.850651
-0.425325  -0.309017  0.850651
-0.187592  0.577350  0.794654
0.491123  0.356822  0.794654
-0.607062  0.000000  0.794654
0.491123  -0.356822  0.794654
-0.187592  -0.577350  0.794654
0.010384  0.621474  0.783366
0.356892  0.508887  0.783366
-0.587848  0.201922  0.783366
0.594266  0.182170  0.783366
0.594266  -0.182170  0.783366
-0.587848  -0.201922  0.783366
-0.373694  -0.496679  0.783366
-0.373694  0.496679  0.783366
0.356892  -0.508887  0.783366
0.010384  -0.621474  0.783366
0.207932  0.639950  0.739749
0.672883  0.000000  0.739749
-0.544374  -0.395511  0.739749
-0.544374  0.395511  0.739749
0.207932  -0.639950  0.739749
0.541057  0.508887  0.669546
-0.736840  -0.093673  0.669546
-0.138608  -0.729723  0.669546
-0.138608  0.729723  0.669546
-0.316784  0.671830  0.669546
0.651176  0.357321  0.669546
-0.736840  0.093673  0.669546
0.651176  -0.357321  0.669546
-0.316784  -0.671830  0.669546
0.541057  -0.508887  0.669546
0.062141  0.762575  0.643908
0.397957  0.653462  0.643908
-0.498503  0.580411  0.643908
-0.706049  0.294748  0.643908
0.744454  0.176549  0.643908
0.744454  -0.176549  0.643908
-0.706049  -0.294748  0.643908
-0.498503  -0.580411  0.643908
0.397957  -0.653462  0.643908
0.062141  -0.762575  0.643908
0.246345  0.758171  0.603730
0.797189  0.000000  0.603730
-0.644939  -0.468576  0.603730
-0.644939  0.468576  0.603730
0.246345  -0.758171  0.603730
-0.262866  0.809017  0.525731
0.688191  0.500000  0.525731
-0.850651  0.000000  0.525731
0.688191  -0.500000  0.525731
-0.262866  -0.809017  0.525731
-0.083904  0.851981  0.516806
-0.432902  0.738585  0.516806
0.568661  0.639950  0.516806
0.784354  0.343074  0.516806
-0.836210  0.183479  0.516806
-0.836210  -0.183479  0.516806
0.784354  -0.343074  0.516806
-0.432902  -0.738585  0.516806
-0.083904  -0.851981  0.516806
0.568661  -0.639950  0.516806
0.429824  0.758171  0.490334
-0.793377  -0.360729  0.490334
-0.588241  -0.643075  0.490334
0.097907  0.866018  0.490334
-0.793377  0.360729  0.490334
0.853887  0.174499  0.490334
0.853887  -0.174499  0.490334
0.097907  -0.866018  0.490334
-0.588241  0.643075  0.490334
0.429824  -0.758171  0.490334
0.276393  0.850651  0.447214
-0.723607  0.525731  0.447214
0.894427  0.000000  0.447214
-0.723607  -0.525731  0.447214
0.276393  -0.850651  0.447214
-0.375975  -0.854000  0.359620
-0.197799  -0.911893  0.359620
-0.197799  0.911893  0.359620
-0.375975  0.854000  0.359620
0.696020  0.621474  0.359620
0.806139  0.469908  0.359620
-0.928385  0.093673  0.359620
-0.928385  -0.093673  0.359620
0.696020  -0.621474  0.359620
0.806139  -0.469908  0.359620
-0.555868  0.756960  0.343545
-0.891684  0.294748  0.343545
0.894636  0.285662  0.343545
0.894636  -0.285662  0.343545
-0.891684  -0.294748  0.343545
-0.555868  -0.756960  0.343545
0.004777  -0.939124  0.343545
0.004777  0.939124  0.343545
0.548139  0.762575  0.343545
0.548139  -0.762575  0.343545
-0.701637  -0.643075  0.306855
0.189647  0.932671  0.306855
0.394783  0.866018  0.306855
-0.828418  0.468576  0.306855
0.945626  0.107846  0.306855
-0.828418  -0.468576  0.306855
0.394783  -0.866018  0.306855
-0.701637  0.643075  0.306855
0.945626  -0.107846  0.306855
0.189647  -0.932671  0.306855
-0.303531  -0.934172  0.187592
0.794654  0.577350  0.187592
-0.982247  0.000000  0.187592
0.794654  -0.577350  0.187592
-0.303531  0.934172  0.187592
-0.963557  0.201922  0.175455
-0.489795  -0.854000  0.175455
-0.105716  0.978795  0.175455
0.898221  0.403007  0.175455
0.660848  -0.729723  0.175455
0.660848  0.729723  0.175455
-0.963557  -0.201922  0.175455
-0.105716  -0.978795  0.175455
0.898221  -0.403007  0.175455
-0.489795  0.854000  0.175455
-0.798867  0.580411  0.157910
-0.798867  -0.580411  0.157910
0.305140  0.939124  0.157910
0.987453  -0.000000  0.157910
0.305140  -0.939124  0.157910
-0.655845  -0.738585  0.156077
0.096461  0.983024  0.156077
-0.905103  0.395511  0.156077
0.964719  0.212031  0.156077
0.499768  -0.851981  0.156077
0.499768  0.851981  0.156077
-0.905103  -0.395511  0.156077
-0.655845  0.738585  0.156077
0.964719  -0.212031  0.156077
0.096461  -0.983024  0.156077
-0.993994  0.108249  0.016090
0.740530  -0.671830  0.016090
-0.410112  -0.911893  0.016090
-0.204210  0.978795  0.016090
0.867785  0.496679  0.016090
-0.204210  -0.978795  0.016090
-0.410112  0.911893  0.016090
-0.993994  -0.108249  0.016090
0.867785  -0.496679  0.016090
0.740530  0.671830  0.016090
-0.587785  -0.809017  0.000000
0.000000  1.000000  0.000000
-0.951057  0.309017  0.000000
0.951057  0.309017  0.000000
0.587785  -0.809017  0.000000
-0.000000  -0.000000  -1.000000
-0.056698  0.174499  -0.983024
-0.056698  -0.174499  -0.983024
0.148438  -0.107846  -0.983024
-0.183479  -0.000000  -0.983024
0.148438  0.107846  -0.983024
0.092817  -0.285662  -0.953825
-0.242999  -0.176549  -0.953825
0.300363  -0.000000  -0.953825
-0.242999  0.176549  -0.953825
0.092817  0.285662  -0.953825
-0.111471  -0.343074  -0.932671
0.291836  -0.212031  -0.932671
-0.360729  -0.000000  -0.932671
0.291836  0.212031  -0.932671
-0.111471  0.343074  -0.932671
-0.434900  -0.182170  -0.881859
0.458919  0.108249  -0.881859
0.244765  0.403007  -0.881859
0.038862  0.469908  -0.881859
0.038862  -0.469908  -0.881859
0.244765  -0.403007  -0.881859
-0.307646  -0.357321  -0.881859
0.458919  -0.108249  -0.881859
-0.434900  0.182170  -0.881859
-0.307646  0.357321  -0.881859
-0.162460  0.500000  -0.850651
-0.162460  -0.500000  -0.850651
0.425325  -0.309017  -0.850651
-0.525731  -0.000000  -0.850651
0.425325  0.309017  -0.850651
0.187592  -0.577350  -0.794654
-0.491123  -0.356822  -0.794654
0.607062  -0.000000  -0.794654
-0.491123  0.356822  -0.794654
0.187592  0.577350  -0.794654
-0.010384  -0.621474  -0.783366
-0.356892  -0.508887  -0.783366
0.587848  -0.201922  -0.783366
-0.594266  -0.182170  -0.783366
-0.594266  0.182170  -0.783366
0.587848  0.201922  -0.783366
0.373694  0.496679  -0.783366
0.373694  -0.496679  -0.783366
-0.356892  0.508887  -0.783366
-0.010384  0.621474  -0.783366
-0.207932  -0.639950  -0.739749
-0.672883  -0.000000  -0.739749
0.544374  0.395511  -0.739749
0.544374  -0.395511  -0.739749
-0.207932  0.639950  -0.739749
-0.541057  -0.508887  -0.669546
0.736840  0.093673  -0.669546
0.138608  0.729723  -0.669546
0.138608  -0.729723  -0.669546
0.316784  -0.671830  -0.669546
-0.651176  -0.357321  -0.669546
0.736840  -0.093673  -0.669546
-0.651176  0.357321  -0.669546
0.316784  0.671830  -0.669546
-0.541057  0.508887  -0.669546
-0.062141  -0.762575  -0.643908
-0.397957  -0.653462  -0.643908
0.498503  -0.580411  -0.643908
0.706049  -0.294748  -0.643908
-0.744454  -0.176549  -0.643908
-0.744454  0.176549  -0.643908
0.706049  0.294748  -0.643908
0.498503  0.580411  -0.643908
-0.397957  0.653462  -0.643908
-0.062141  0.762575  -0.643908
-0.246345  -0.758171  -0.603730
-0.797189  -0.000000  -0.603730
0.644939  0.468576  -0.603730
0.644939  -0.468576  -0.603730
-0.246345  0.758171  -0.603730
0.262866  -0.809017  -0.525731
-0.688191  -0.500000  -0.525731
0.850651  -0.000000  -0.525731
-0.688191  0.500000  -0.525731
0.262866  0.809017  -0.525731
0.083904  -0.851981  -0.516806
0.432902  -0.738585  -0.516806
-0.568661  -0.639950  -0.516806
-0.784354  -0.343074  -0.516806
0.836210  -0.183479  -0.516806
0.836210  0.183479  -0.516806
-0.784354  0.343074  -0.516806
0.432902  0.738585  -0.516806
0.083904  0.851981  -0.516806
-0.568661  0.639950  -0.516806
-0.429824  -0.758171  -0.490334
0.793377  0.360729  -0.490334
0.588241  0.643075  -0.490334
-0.097907  -0.866018  -0.490334
0.793377  -0.360729  -0.490334
-0.853887  -0.174499  -0.490334
-0.853887  0.174499  -0.490334
-0.097907  0.866018  -0.490334
0.588241  -0.643075  -0.490334
-0.429824  0.758171  -0.490334
-0.276393  -0.850651  -0.447214
0.723607  -0.525731  -0.447214
-0.894427  -0.000000  -0.447214
0.723607  0.525731  -0.447214
-0.276393  0.850651  -0.447214
0.375975  0.854000  -0.359620
0.197799  0.911893  -0.359620
0.197799  -0.911893  -0.359620
0.375975  -0.854000  -0.359620
-0.696020  -0.621474  -0.359620
-0.806139  -0.469908  -0.359620
0.928385  -0.093673  -0.359620
0.928385  0.093673  -0.359620
-0.696020  0.621474  -0.359620
-0.806139  0.469908  -0.359620
0.555868  -0.756960  -0.343545
0.891684  -0.294748  -0.343545
-0.894636  -0.285662  -0.343545
-0.894636  0.285662  -0.343545
0.891684  0.294748  -0.343545
0.555868  0.756960  -0.343545
-0.004777  0.939124  -0.343545
-0.004777  -0.939124  -0.343545
-0.548139  -0.762575  -0.343545
-0.548139  0.762575  -0.343545
0.701637  0.643075  -0.306855
-0.189647  -0.932671  -0.306855
-0.394783  -0.866018  -0.306855
0.828418  -0.468576  -0.306855
-0.945626  -0.107846  -0.306855
0.828418  0.468576  -0.306855
-0.394783  0.866018  -0.306855
0.701637  -0.643075  -0.306855
-0.945626  0.107846  -0.306855
-0.189647  0.932671  -0.306855
0.303531  0.934172  -0.187592
-0.794654  -0.577350  -0.187592
0.982247  -0.000000  -0.187592
-0.794654  0.577350  -0.187592
0.303531  -0.934172  -0.187592
0.963557  -0.201922  -0.175455
0.489795  0.854000  -0.175455
0.105716  -0.978795  -0.175455
-0.898221  -0.403007  -0.175455
-0.660848  0.729723  -0.175455
-0.660848  -0.729723  -0.175455
0.963557  0.201922  -0.175455
0.105716  0.978795  -0.175455
-0.898221  0.403007  -0.175455
0.489795  -0.854000  -0.175455
0.798867  -0.580411  -0.157910
0.798867  0.580411  -0.157910
-0.305140  -0.939124  -0.157910
-0.987453  0.000000  -0.157910
-0.305140  0.939124  -0.157910
0.655845  0.738585  -0.156077
-0.096461  -0.983024  -0.156077
0.905103  -0.395511  -0.156077
-0.964719  -0.212031  -0.156077
-0.499768  0.851981  -0.156077
-0.499768  -0.851981  -0.156077
0.905103  0.395511  -0.156077
0.655845  -0.738585  -0.156077
-0.964719  0.212031  -0.156077
-0.096461  0.983024  -0.156077
0.993994  -0.108249  -0.016090
-0.740530  0.671830  -0.016090
0.410112  0.911893  -0.016090
0.204210  -0.978795  -0.016090
-0.867785  -0.496679  -0.016090
0.204210  0.978795  -0.016090
0.410112  -0.911893  -0.016090
0.993994  0.108249  -0.016090
-0.867785  0.496679  -0.016090
-0.740530  -0.671830  -0.016090
0.587785  0.809017  -0.000000
-0.000000  -1.000000  -0.000000
0.951057  -0.309017  -0.000000
-0.951057  -0.309017  -0.000000
-0.587785  0.809017  -0.000000
