# vtk DataFile Version 2.0
File written by itkVTKPolyDataWriter
ASCII
DATASET POLYDATA
POINTS 696 float
111.427 107.784 124.284
109.155 110.038 122.717
110.76 117.418 107.808
119.303 114.669 125.661
116.463 111.174 120.975
119.379 114.115 123.238
112.052 112.997 128.405
114.474 111.261 128.764
115.727 123.968 108.652
117.708 117.513 128.494
119.075 114.186 121.498
117.772 113.83 127.531
116.688 121.241 124.707
114.353 109.292 127.123
114.242 119.175 123.121
115.408 115.444 129.055
118.352 113.696 126.731
114.976 116.894 128.801
120.554 116.301 122.341
118.575 113.955 126.804
116.767 111.03 126.664
118.96 113.768 125.853
116.549 116.475 113.625
116.686 126.554 117.223
119.658 117.733 117.572
118.315 115.817 127.647
117.993 112.151 125.714
120.446 118.588 125.656
116.196 110.775 123.968
118.181 113.919 127.185
118.052 114.824 127.709
116.592 114.446 128.85
118.727 113.764 126.334
118.592 112.88 125.942
118.992 112.712 124.154
119.036 114.51 126.401
120.094 116.242 126.598
117.695 112.493 127.08
118.583 114.536 127.267
113.406 115.021 128.609
111.412 115.281 124.786
113.212 117.521 126.722
116.388 122.874 120.21
119.747 113.797 124.567
120.351 115.645 124.114
119.844 115.249 126.268
110.221 116.92 117.586
117.376 115.547 128.638
117.846 113.394 127.053
117.046 113.052 127.75
120.22 116.02 125.358
121.119 117.316 124.378
120.17 119.466 122.877
114.763 113.357 129.133
113.18 121.973 115.771
113.642 109.215 122.416
112.201 110.537 115.071
114.054 109.758 118.43
116.917 113.283 116.767
118.237 112.565 122.538
116.741 111.807 127.772
115.578 110.727 127.752
115.973 112.707 128.911
118.433 113.277 126.339
118 112.669 126.435
117.7 111.876 126.45
117.263 111.274 125.682
115.924 109.938 125.44
117.928 111.645 124.379
114.637 109.303 124.099
120.457 117.304 125.88
119.244 118.198 127.281
117.199 119.861 127.103
109.748 108.816 118.487
118.062 114.3 127.585
117.472 114.408 128.429
119.684 116.428 119.922
119.642 119.39 120.107
118.62 121.408 117.399
119.503 123.207 122.055
111.628 114.936 127.238
110.304 111.834 125.638
119.244 120.195 126.571
112.095 110.287 128.151
119.076 113.125 125.042
118.533 114.106 118.809
117.932 112.755 120.649
116.958 112.106 118.785
115.23 111.581 117.396
114.76 112.926 114.057
110.316 113.75 111.162
109.286 118.73 112.568
117.684 123.374 113.04
109.076 112.811 119.187
118.367 115.615 116.593
118.614 118.04 115.003
117.515 119.675 112.23
114.613 117.108 109.855
108.95 114.1 114.977
116.327 116.811 128.874
116.185 118.34 127.99
115.114 119.376 126.461
114.607 117.998 127.665
121.069 118.985 123.999
120.252 120.994 124.682
110.058 112.989 122.675
111.63 116.127 121.043
113.073 119.57 118.871
111.495 107.51 120.967
119.632 121.469 122.974
118.181 123.076 124.047
116.751 122.16 122.447
115.163 120.724 121.084
114.774 121.61 118.795
115.658 124.212 118.168
114.601 125.013 115.601
115.294 132.529 111.107
115.754 129.237 113.962
111.31 124.119 111.595
112.489 128.748 110.255
118.581 124.668 118.417
119.561 121.361 120.989
118.545 123.086 120.127
119.233 120.934 119.082
119.206 119.591 117.595
118.657 120.011 115.764
118.649 122.767 115.219
117.714 125.44 115.015
116.788 126.54 112.389
116.796 129.599 110.875
117.83 119.6 114.065
117.596 121.369 113.304
116.589 121.833 111.138
114.699 120.349 108.476
110.428 122.943 104.785
113.479 122.413 106.209
113.428 127.91 104.676
115.124 131.063 107.169
115.917 119.352 110.369
110.99 119.943 105.823
108.67 120.761 109.188
116.156 117.399 111.564
114.748 114.697 111.525
118.417 121.61 125.549
120.448 117.894 122.949
119.615 118.158 121.479
113.622 110.658 116.523
111.876 108.962 117.173
109.691 110.146 115.986
109.999 111.721 113.323
114.389 125.555 106.387
115.687 127.218 108.946
112.263 125.221 104.194
109.358 126.673 107.109
112.966 108.503 123.979
112.393 108.668 126.264
110.389 109.506 125.779
112.41 108.037 122.33
113.135 108.644 120.274
110.917 107.468 122.63
109.685 108.525 121.292
110.036 108.757 123.732
109.082 110.569 120.274
114.681 110.055 120.384
109.013 111.036 117.889
109.394 110.232 124.591
109.31 111.651 123.6
109.151 111.711 121.694
109.881 113.049 120.805
109.966 114.979 119.166
110.458 114.65 121.689
111.576 115.571 122.915
113.005 117.17 124.172
112.502 117.306 122.333
112.541 118.012 120.284
111.631 118.12 118.441
110.898 119.525 115.632
111.048 121.863 113.566
112.014 119.759 117.215
109.063 115.05 116.973
109.142 117.249 114.928
109.024 115.857 112.489
109.241 117.34 110.153
113.493 120.973 117.61
114.397 122.857 117.357
108.958 112.103 115.877
110.762 115.458 109.294
113.559 119.702 120.73
117.398 118.089 113.098
112.56 112.563 112.346
111.412 108.619 119.392
112.705 114.212 110.137
109.562 132.557 104.795
110.307 112.747 124.353
110.57 113.743 126.066
110.454 114.305 123.73
110.859 112.626 127.248
110.458 110.952 126.883
111.228 109.812 127.008
111.418 111.607 127.886
112.451 111.768 128.904
113.24 113.279 129.294
113.419 116.619 128.046
110.872 116.583 119.292
109.442 128.198 102.944
117.326 128.116 115.392
115.481 127.037 114.683
113.715 127.575 112.568
113.871 125.587 113.656
114.402 130.06 111.842
112.893 131.481 109.7
112.804 137.461 107.344
110.679 129.808 107.449
113.585 134.441 108.702
113.323 123.615 114.44
111.53 132.798 107.135
112.795 131.908 103.845
110.874 135.695 105.353
114.054 135.124 105.211
112.337 124.337 113.129
112.491 125.92 111.966
110.594 126.076 109.686
109.083 123.634 107.892
116.304 131.13 112.741
115.429 110.014 122.455
113.513 111.737 114.95
115.14 112.193 115.663
116.112 113.882 115.048
115.383 114.74 113.325
112.647 111.465 113.645
111.232 110.601 113.728
109.912 110.675 114.503
109.021 111.868 114.427
108.955 113.529 113.005
110.905 110.079 115.332
110.634 109.099 116.445
109.445 109.266 117.117
112.01 109.454 115.868
112.664 109.832 116.75
112.526 109.475 118.267
113.166 110.648 129.04
113.161 109.497 127.958
109.058 109.827 118.109
109.093 109.416 119.57
110.135 108.567 119.84
116.714 124.276 111.396
116.731 126.099 110.345
112.913 116.488 108.295
113.044 118.714 107.246
110.722 108.873 117.717
111.533 111.648 112.755
111.167 112.738 111.791
112.433 113.125 111.029
113.733 113.511 111.744
113.719 112.959 113.046
114.594 113.931 112.581
109.895 113.012 112.218
109.242 114.057 111.835
109.609 115.155 110.561
111.41 113.627 110.274
111.745 114.479 109.235
113.043 115.388 109.235
114.043 115.076 110.279
114.849 116.165 111.001
115.176 115.735 112.275
110.581 114.502 110.25
109.79 121.688 111.34
109.831 123.39 109.928
113.779 108.63 125.339
112.491 127.494 111.336
111.363 127.521 110.127
111.229 128.715 108.788
110.43 127.309 108.769
110.361 128.15 107.288
109.453 129.254 105.202
109.45 130.676 103.188
110.226 135.009 100.718
111.696 129.57 102.674
110.748 131.851 100.908
109.459 125.957 108.508
109.233 125.05 107.12
109.486 125.769 104.361
109.175 123.468 106.028
109.585 121.439 107.04
111.892 130.316 108.754
109.995 124.649 109.02
109.404 127.774 105.884
110.689 124.751 110.377
111.574 126.025 110.81
111.471 131.224 107.417
110.341 130.785 105.874
112.423 132.156 108.314
113.643 132.922 109.416
115.097 133.939 109.907
115.277 133.566 107.401
116.491 132.265 109.216
112.477 133.617 108.07
112.301 135.523 107.435
111.519 134.312 107.009
110.506 133.48 105.895
109.921 134.42 104.36
108.796 138.702 102.788
109.522 132.978 102.597
109.651 136.771 103.83
112.416 137.759 103.461
108.795 136.341 101.78
110.83 138.127 101.232
110.71 139.952 105.058
115.251 136.286 107.897
109.295 125.818 105.846
109.259 124.555 105.098
110.473 124.446 103.831
110.921 126.469 102.651
113.662 128.675 111.473
114.774 128.795 112.596
114.771 127.753 113.645
109.786 119.332 107.584
113.274 129.881 110.848
114.026 131.228 110.891
115.4 130.061 112.892
116.864 129.053 112.586
116.808 127.833 111.208
115.078 131.296 111.973
109.384 128.002 104.407
109.94 126.971 103.557
109.416 129.227 103.837
109.63 129.489 102.536
109.789 130.865 101.645
110.675 128.527 102.32
112.182 127.828 103.132
109.473 130.42 104.503
111.183 130.883 102.024
112.092 132.688 102.106
112.648 134.202 103.729
111.883 134.973 101.864
109.503 131.577 104.04
109.486 131.832 102.936
109.626 132.063 101.828
110.022 133.537 101.35
109.582 134.853 102.42
109.536 132.732 103.682
109.57 133.938 103.346
109.616 135.216 103.497
110.126 135.695 104.448
110.533 137.135 104.833
109.805 138.682 104.086
109.243 141.486 103.422
111.619 137.098 106.138
112.23 139.139 106.053
114.22 137.832 105.564
111.77 140.978 102.712
112.434 141.503 104.872
109.483 136.142 102.68
108.863 137.3 102.646
108.76 138.244 101.129
109.215 140.544 101.594
109.703 136.843 100.577
109.639 131.434 105.193
110.502 132.123 106.022
112.119 130.881 103.083
113.408 130.027 104.608
114.38 129.14 106.415
115.585 129.384 108.478
114.193 131.738 105.386
112.522 129.832 103.642
113.128 128.928 104.138
114.07 129.054 105.104
114.283 130.272 105.746
114.236 128.025 105.747
115.366 127.881 107.3
113.449 126.587 105.539
113.3 125.073 105.314
112.471 123.209 104.561
114.142 123.934 106.012
114.503 123.23 107.477
115.355 122.122 108.447
116.304 122.877 109.834
114.202 121.343 107.261
112.956 120.439 105.96
116.16 120.977 109.626
111.894 121.331 104.769
113.052 126.523 103.985
114.795 124.904 107.76
114.793 126.511 107.701
115.894 125.615 108.798
116.422 130.23 113.585
117.207 129.119 114.27
117.824 127.302 113.763
116.651 124.738 109.583
109.291 137.918 103.452
112.946 130.816 103.968
110.331 121.399 105.452
111.03 136.429 100.876
111.443 136.982 102.382
112.315 135.93 103.386
113.345 136.661 104.512
111.553 138.828 102.475
112.494 139.579 103.481
113.317 138.524 104.414
110.695 140.037 101.506
110.398 142.389 101.737
111.478 143.318 103.476
113.278 140.205 104.575
112.571 141.031 103.698
111.737 141.996 103.466
110.442 142.295 104.498
112.064 142.685 104.37
111.156 142.615 102.583
109.624 143.408 103.014
111.434 142.057 105.165
111.67 140.656 105.361
111.245 141.655 101.931
110.44 141.242 101.404
109.497 141.775 101.58
108.76 141.4 102.349
108.854 140.167 103.049
109.739 140.217 103.983
109.527 142.813 102.112
110.708 141.219 105.055
110.018 141.286 104.292
110.388 143.45 102.315
110.534 144.205 103.316
116.026 128.456 110.011
112.42 129.881 109.839
114.903 135.187 108.908
113.744 135.998 107.842
114.207 137.401 107.535
115.092 137.106 106.635
115.117 135.44 106.519
114.431 136.399 105.646
115.927 134.862 107.982
116.393 133.57 108.589
113.468 138.382 106.506
113.819 139.25 105.532
117.707 125.398 113.307
116.229 128.691 115.035
109.348 126.876 104.963
114.787 134.113 106.069
113.711 133.512 104.856
114.287 132.833 106.436
115.229 132.318 107.304
115.554 131.604 108.415
116.58 130.635 109.53
116.776 131.294 111.148
115.516 130.48 108.148
115.275 129.585 107.275
110.141 143.387 103.998
109.6 142.523 103.672
111.104 138.416 105.41
111.094 118.32 116.825
110.208 118.095 115.603
110.335 118.998 113.98
109.979 120.395 113.013
109.163 120.073 111.635
109.696 116.792 116.208
109.028 115.645 115.339
108.98 115.26 113.887
109.069 116.704 113.614
109.137 117.295 112.315
108.992 118.23 111.27
108.574 118.971 109.733
109.108 116.43 111.199
109.424 117.982 113.835
109.492 118.02 108.729
110.149 116.759 108.993
111.427 116.446 108.387
112.199 117.383 107.63
111.518 118.39 106.787
113.462 117.921 108.29
113.991 119.184 108.064
114.512 118.587 109.3
114.001 119.88 106.905
110.75 120.546 114.428
112.102 121.59 114.65
112.311 120.488 115.75
112.311 122.698 113.8
111.439 123.054 112.767
110.719 121.836 112.292
110.761 122.788 111.406
108.867 120.806 110.545
109.385 121.947 109.802
108.886 122.109 108.369
118.436 121.138 114.56
118.65 121.516 115.874
118.62 123.128 116.888
118.655 125.277 116.598
118.581 122.893 118.472
112.086 125.988 103.089
111.018 125.479 103.382
118.664 118.389 116.561
118.651 116.988 116.027
117.449 115.994 115.099
118.963 116.614 117.241
118.697 115.347 117.986
119.671 116.608 118.462
119.708 118.071 119.099
117.765 114.205 117.559
117.355 114.602 116.225
119.314 115.256 119.185
118.956 114.196 120.103
119.619 115.311 120.71
119.801 116.681 121.389
119.656 115.317 122.048
120.277 115.256 122.925
119.681 119.368 118.753
117.627 113.236 118.437
116.07 127.475 115.957
115.592 126.115 115.647
115.562 125.043 116.827
114.75 125.957 114.824
114.169 124.755 114.488
114.199 123.834 115.223
114.512 123.979 116.509
114.189 122.72 116.18
114.164 110.147 128.135
117.137 127.793 116.648
118.097 126.745 116.975
117.607 126.154 118.453
117.337 124.964 120.167
117.791 126.98 115.839
118.28 124.493 121.618
114.477 127.071 106.566
117.903 118.745 127.558
116.007 131.96 111.941
116.501 132.488 110.98
116.327 133.369 109.932
111.513 135.468 106.419
110.807 134.649 105.974
112.709 116.006 126.957
112.562 116.628 125.619
113.575 117.758 125.35
114.102 118.533 126.279
114.998 119.154 124.692
115.773 120.45 123.28
114.042 118.16 124.078
113.165 118.25 123.15
113.28 118.51 121.661
114.316 119.451 121.768
111.869 115.48 126.102
112.475 115.467 128.12
111.808 114.223 128.202
112.596 114.099 128.921
112.923 140.126 105.685
109.113 109.492 120.838
113.666 116.512 109.216
110.845 129.636 101.67
111.168 134.028 101.03
117.816 122.357 114.295
117.683 123.842 114.943
118.427 124.038 115.917
116.315 115.236 114.437
108.939 112.916 114.862
108.956 113.287 115.991
108.986 112.402 117.274
109.009 113.716 117.198
109.103 114.454 118.282
109.534 115.76 117.994
111.262 108.838 126.06
110.71 108.558 124.951
111.777 107.835 125.491
112.507 119.218 106.293
117.712 124.598 114.104
116.457 125.479 118.105
116.499 124.622 119.17
115.861 123.362 119.141
115.505 122.223 119.622
115.826 121.834 120.746
116.117 121.189 121.795
114.962 121.056 119.89
114.056 120.491 119.123
116.487 122.698 121.409
117.426 123.476 122.175
117.001 123.908 120.937
118.465 124.062 122.974
115.326 122.929 118.126
117.448 122.841 123.193
116.588 122.026 123.729
117.432 122.2 124.414
108.782 139.654 102.117
109.266 139.344 101.266
109.766 138.307 100.608
109.86 140.206 100.866
117.537 117.256 114.37
117.979 118.376 114.078
115.791 120.2 125.355
117.018 120.533 125.877
117.957 120.802 126.469
116.225 119.75 126.63
115.464 119.04 127.487
116.719 111.017 122.428
117.442 111.206 123.34
117.457 111.811 121.502
108.43 119.62 110.777
119.32 123.275 123.4
119.201 122.368 124.492
115.202 120.235 122.238
113.605 112.076 129.208
108.993 111.064 115.437
109.004 110.801 116.689
115.265 118.201 110.166
116.173 118.373 110.924
116.756 118.517 112.031
116.836 119.498 111.224
117.334 120.793 111.551
117.638 122.232 112.029
116.385 120.556 110.729
116.94 123.041 111.529
117.629 124.018 112.087
116.842 125.071 112.464
116.74 125.627 111.431
109.807 129.117 106.54
114.103 114.408 129.232
114.298 115.738 129.189
114.268 126.67 113.128
120.396 119.758 125.083
116.344 127.242 110.02
111.209 135.242 101.08
115.772 134.402 109.023
109.532 116.168 109.896
119.56 119.981 121.689
108.925 120.859 107.972
109.197 119.877 108.517
111.839 133.781 101.826
111.31 132.842 101.301
112.185 133.575 102.875
112.659 133.041 103.75
112.19 134.749 102.872
113.122 135.348 104.229
112.162 131.977 102.926
110.486 127.5 102.744
115.95 129.703 109.887
110.688 115.461 120.249
110.187 114.24 120.305
118.499 125.894 117.676
115.256 110.728 118.854
115.713 110.94 120.006
108.989 122.512 107.201
109.786 122.382 106.175
114.739 109.444 125.353
115.298 109.257 126.225
117.773 126.678 114.722
116.074 132.606 108.143
113.837 132.041 110.107
114.577 132.831 110.177
113.325 123.195 105.389
113.038 121.923 105.095
110.485 118.439 107.416
110.589 119.323 106.708
110.048 120.388 106.526
109.025 123.217 109.015
109.096 111.88 120.29
109.044 111.321 119.14
120.505 116.884 123.512
114.37 131.729 106.541
115.223 119.898 109.478
118.556 123.915 119.298
118.539 124.348 120.448
119.249 123.596 120.976
118.389 125.262 119.574
115.64 128.369 108.905
118.252 119.978 127.39
110.253 110.629 125.668
112.909 107.789 124.863
116.845 130.325 111.956
118.612 122.041 119.297
119.203 122.124 120.255
111.324 123.401 103.826
111.438 122.392 104.462
115.946 112.446 116.565
116.429 112.097 117.676
112.056 116.194 124.005
110.498 137.516 100.337
109.522 135.495 101.425
117.046 127.795 112.947
109.198 124.826 108.236
116.349 117.336 112.73
109.122 110.512 121.559
119.211 116.909 127.493
119.664 117.667 120.257
119.218 124.386 122.141
114.534 109.872 121.671
109.322 108.792 122.578
115.118 117.32 110.897
112.208 137.997 106.471
119.935 119.275 126.772
112.948 125.447 112.897
116.975 112.099 120.083
112.352 136.543 106.856
111.407 140.022 102.238
113.472 132.392 104.702
114.306 110.678 117.546
120.478 120.741 123.356
108.84 137.035 100.952
119.353 120.991 125.647
118.615 124.361 117.296
118.661 119.246 114.805
POLYGONS 1388 5552
3 160 681 159
3 610 273 286
3 161 558 0
3 645 667 380
3 251 259 90
3 45 3 35
3 110 594 577
3 182 464 463
3 224 4 680
3 401 407 404
3 555 632 93
3 212 271 273
3 210 317 423
3 408 417 420
3 354 580 579
3 286 323 274
3 632 170 168
3 395 627 218
3 477 266 478
3 267 285 287
3 326 204 328
3 623 338 278
3 584 532 533
3 567 111 533
3 79 657 665
3 244 160 108
3 54 474 473
3 211 687 683
3 425 424 213
3 639 268 13
3 144 51 103
3 9 25 47
3 33 26 64
3 151 422 659
3 513 511 512
3 637 134 282
3 166 105 193
3 211 432 426
3 359 331 277
3 329 277 328
3 324 312 629
3 342 339 352
3 540 80 539
3 388 609 246
3 324 436 281
3 643 642 292
3 254 255 253
3 659 362 369
3 551 233 98
3 654 133 470
3 639 67 638
3 237 235 147
3 324 281 488
3 105 168 170
3 183 107 178
3 643 292 293
3 265 259 260
3 86 59 10
3 167 168 105
3 52 109 619
3 53 15 31
3 60 37 65
3 460 621 140
3 249 190 147
3 49 60 62
3 200 596 240
3 480 479 140
3 673 321 128
3 453 592 479
3 126 548 547
3 375 377 133
3 235 236 249
3 272 271 270
3 424 430 617
3 79 109 593
3 279 285 674
3 160 543 681
3 186 265 260
3 386 435 117
3 404 407 350
3 141 600 682
3 670 173 172
3 476 477 478
3 678 77 495
3 1 681 543
3 583 695 130
3 196 6 199
3 556 46 203
3 542 402 433
3 346 414 417
3 203 175 174
3 661 197 156
3 588 587 72
3 163 680 635
3 472 176 451
3 570 111 567
3 215 291 289
3 592 459 460
3 626 624 333
3 532 530 534
3 563 572 42
3 388 8 376
3 336 335 275
3 589 28 590
3 207 220 269
3 577 575 110
3 441 440 137
3 104 691 614
3 329 312 487
3 15 99 47
3 479 592 140
3 154 268 69
3 102 41 531
3 693 594 104
3 128 321 609
3 514 7 61
3 327 275 326
3 291 215 296
3 294 430 428
3 30 75 47
3 414 415 578
3 262 142 263
3 527 298 299
3 558 559 0
3 660 71 522
3 437 438 439
3 159 108 160
3 546 334 616
3 580 692 356
3 535 173 536
3 453 459 592
3 447 405 419
3 196 540 6
3 206 613 315
3 32 63 16
3 394 304 393
3 55 69 224
3 341 340 302
3 198 83 155
3 534 14 532
3 445 361 369
3 445 367 361
3 544 470 468
3 174 187 536
3 548 92 547
3 63 48 16
3 176 450 451
3 404 350 403
3 153 309 286
3 619 77 145
3 342 352 303
3 383 382 384
3 387 673 128
3 49 37 60
3 381 371 370
3 145 501 144
3 498 494 493
3 514 240 7
3 25 677 36
3 517 516 633
3 150 521 370
3 71 70 677
3 363 360 367
3 329 487 381
3 125 483 482
3 337 336 327
3 560 248 471
3 645 380 378
3 480 266 479
3 559 155 662
3 382 373 374
3 664 78 123
3 155 241 13
3 346 417 447
3 372 667 645
3 426 308 425
3 533 14 595
3 523 322 116
3 510 214 208
3 68 66 26
3 412 413 581
3 243 242 651
3 498 500 76
3 615 151 384
3 213 296 297
3 636 282 222
3 295 641 441
3 314 313 209
3 671 306 580
3 649 481 222
3 35 21 32
3 217 527 300
3 161 1 165
3 105 170 195
3 613 207 315
3 456 233 181
3 70 27 51
3 441 137 444
3 221 279 272
3 427 429 428
3 589 4 224
3 665 123 121
3 490 582 491
3 292 642 210
3 104 594 109
3 639 638 268
3 393 334 394
3 360 390 364
3 683 448 348
3 682 600 599
3 276 356 672
3 575 577 576
3 338 339 302
3 344 303 345
3 84 26 33
3 334 546 622
3 651 242 164
3 668 226 88
3 395 304 394
3 496 85 493
3 59 5 10
3 538 528 80
3 300 299 192
3 427 426 432
3 17 100 99
3 52 619 145
3 408 447 417
3 122 656 655
3 329 328 629
3 202 17 612
3 679 79 593
3 391 637 283
3 679 657 79
3 408 421 446
3 567 533 595
3 209 317 318
3 152 381 487
3 378 377 135
3 694 485 549
3 222 481 636
3 150 383 521
3 503 18 502
3 432 433 349
3 452 453 266
3 88 146 690
3 651 553 93
3 136 365 329
3 253 252 189
3 179 454 556
3 230 234 56
3 427 432 349
3 112 568 566
3 145 77 678
3 238 146 56
3 310 134 311
3 687 425 297
3 615 321 422
3 494 495 24
3 480 481 649
3 228 255 89
3 565 42 566
3 565 566 568
3 372 666 667
3 383 384 151
3 146 226 225
3 609 245 608
3 380 391 139
3 656 658 655
3 164 553 651
3 108 158 190
3 320 129 321
3 549 485 127
3 481 620 283
3 300 340 341
3 351 409 406
3 128 434 387
3 501 678 76
3 98 233 456
3 277 545 328
3 68 34 59
3 485 633 516
3 551 232 233
3 292 291 296
3 408 420 421
3 83 199 200
3 314 207 313
3 101 587 588
3 324 323 436
3 487 488 152
3 695 125 482
3 600 138 599
3 378 380 139
3 321 246 609
3 102 531 101
3 598 597 185
3 62 61 7
3 657 656 122
3 4 591 686
3 325 274 323
3 378 135 645
3 178 474 183
3 327 336 275
3 52 144 103
3 430 308 428
3 76 495 494
3 156 197 198
3 279 674 280
3 55 680 158
3 22 264 228
3 442 443 295
3 186 258 265
3 51 652 44
3 69 67 28
3 529 41 528
3 674 222 280
3 358 289 290
3 206 315 435
3 57 634 690
3 387 386 673
3 78 486 484
3 549 548 126
3 167 676 650
3 30 47 25
3 515 23 506
3 524 443 523
3 71 27 70
3 683 347 448
3 399 396 688
3 195 40 194
3 275 330 325
3 316 648 620
3 226 89 225
3 227 668 58
3 193 105 195
3 382 374 8
3 362 444 445
3 525 116 293
3 48 49 11
3 378 560 471
3 167 166 1
3 466 468 248
3 251 90 256
3 351 403 402
3 587 101 584
3 595 14 537
3 474 176 472
3 17 102 100
3 178 449 176
3 339 338 672
3 344 345 448
3 596 200 201
3 289 291 284
3 459 458 461
3 170 171 195
3 251 252 259
3 244 243 543
3 378 139 560
3 18 144 501
3 307 345 416
3 101 588 102
3 258 181 257
3 613 206 509
3 349 398 395
3 482 131 130
3 131 603 96
3 621 463 316
3 460 459 182
3 172 530 529
3 454 180 450
3 37 48 64
3 296 298 297
3 139 391 648
3 142 262 253
3 64 26 65
3 325 323 204
3 323 286 436
3 189 254 253
3 573 679 593
3 308 426 427
3 674 285 222
3 232 149 233
3 211 426 425
3 479 266 453
3 465 466 2
3 234 231 148
3 478 267 118
3 169 203 631
3 261 247 465
3 332 623 331
3 473 474 472
3 629 204 324
3 331 278 327
3 196 81 194
3 406 405 401
3 357 290 330
3 511 214 510
3 190 73 244
3 484 486 694
3 364 329 365
3 220 613 685
3 269 288 270
3 1 166 165
3 48 63 64
3 498 76 494
3 489 125 695
3 25 38 30
3 403 397 402
3 201 6 541
3 363 367 653
3 419 346 447
3 484 126 483
3 222 282 280
3 613 208 685
3 322 319 209
3 419 416 346
3 39 611 541
3 440 653 137
3 87 505 669
3 625 438 333
3 264 263 142
3 218 437 428
3 50 44 3
3 256 233 149
3 211 683 432
3 630 362 659
3 473 472 177
3 43 44 5
3 692 305 672
3 264 142 255
3 582 95 583
3 397 350 688
3 29 19 16
3 359 628 331
3 101 531 532
3 675 188 601
3 192 357 335
3 71 677 9
3 195 194 193
3 41 529 530
3 600 602 138
3 676 543 162
3 360 364 365
3 603 604 132
3 32 21 63
3 481 283 636
3 87 686 505
3 607 608 245
3 662 154 0
3 541 6 540
3 487 312 488
3 625 628 216
3 403 350 397
3 279 221 285
3 47 75 31
3 567 595 112
3 533 111 576
3 401 421 420
3 296 215 298
3 258 618 461
3 102 588 100
3 409 405 406
3 519 515 205
3 221 272 270
3 302 336 337
3 22 188 675
3 353 352 305
3 525 293 617
3 295 524 525
3 514 241 240
3 71 684 27
3 23 515 516
3 19 32 16
3 267 287 118
3 358 290 357
3 647 646 467
3 154 69 55
3 541 611 201
3 188 96 601
3 429 349 395
3 270 271 119
3 10 502 500
3 167 650 168
3 428 429 218
3 552 554 553
3 180 462 450
3 511 510 115
3 394 626 333
3 440 294 439
3 248 560 467
3 171 106 173
3 407 411 350
3 159 157 108
3 186 464 618
3 92 607 604
3 82 693 614
3 171 170 106
3 658 518 517
3 686 591 86
3 9 522 71
3 677 70 36
3 152 311 666
3 156 161 165
3 574 184 114
3 169 632 555
3 417 414 413
3 384 382 8
3 466 467 2
3 366 365 136
3 398 402 397
3 662 268 154
3 86 10 499
3 381 152 371
3 409 418 405
3 510 208 509
3 144 652 51
3 652 503 44
3 38 29 74
3 170 632 631
3 30 74 75
3 245 609 388
3 556 454 46
3 260 259 191
3 290 610 274
3 287 285 221
3 546 623 622
3 33 21 84
3 595 537 112
3 269 119 313
3 605 138 602
3 512 184 513
3 282 310 280
3 256 257 233
3 97 470 544
3 443 223 523
3 442 630 129
3 202 612 39
3 85 498 493
3 355 414 578
3 114 184 512
3 415 301 578
3 388 384 8
3 475 476 219
3 354 692 580
3 163 635 634
3 500 501 76
3 434 608 607
3 208 214 219
3 276 672 338
3 695 482 130
3 24 489 492
3 557 198 155
3 196 80 540
3 309 310 281
3 91 459 453
3 379 376 375
3 432 542 433
3 326 325 204
3 621 620 140
3 246 384 388
3 547 92 131
3 261 465 186
3 502 501 500
3 279 280 153
3 205 506 435
3 429 395 218
3 416 345 415
3 20 65 66
3 414 355 413
3 158 157 55
3 208 613 509
3 508 562 114
3 469 248 468
3 78 484 483
3 515 506 205
3 338 302 337
3 7 240 596
3 199 6 200
3 146 225 56
3 641 294 440
3 284 271 212
3 663 443 129
3 694 486 120
3 575 576 111
3 238 237 147
3 1 161 681
3 53 31 62
3 440 439 653
3 439 689 363
3 690 146 238
3 307 416 419
3 606 376 132
3 77 123 504
3 347 687 526
3 591 59 86
3 205 435 386
3 217 300 343
3 281 310 311
3 66 65 26
3 345 303 389
3 284 423 271
3 305 352 672
3 140 620 481
3 572 563 518
3 444 137 445
3 98 455 179
3 346 416 415
3 161 156 558
3 545 277 331
3 329 629 312
3 318 317 210
3 28 589 224
3 56 225 229
3 550 491 22
3 650 93 168
3 320 386 385
3 644 135 373
3 504 124 24
3 294 431 430
3 123 78 124
3 476 177 477
3 96 130 131
3 446 447 408
3 558 557 559
3 615 422 151
3 499 10 500
3 583 95 695
3 671 580 356
3 179 556 555
3 464 2 463
3 148 235 234
3 155 13 268
3 608 128 609
3 375 8 374
3 363 689 390
3 116 642 643
3 475 219 214
3 587 585 72
3 345 389 301
3 268 638 69
3 129 630 422
3 649 222 285
3 454 450 449
3 593 594 110
3 236 242 73
3 342 303 343
3 18 503 652
3 148 231 597
3 677 25 9
3 187 537 536
3 290 289 212
3 145 144 52
3 579 578 354
3 616 392 276
3 503 5 44
3 343 300 342
3 160 244 543
3 544 262 97
3 78 125 124
3 605 602 603
3 401 420 407
3 507 509 206
3 283 637 636
3 433 402 398
3 588 72 100
3 579 355 578
3 332 331 628
3 589 59 591
3 585 584 12
3 258 461 181
3 467 646 2
3 531 41 530
3 356 276 392
3 602 96 603
3 320 663 129
3 67 66 28
3 374 135 377
3 115 508 512
3 371 150 370
3 497 94 491
3 662 155 268
3 295 443 524
3 51 44 50
3 230 56 229
3 604 606 132
3 580 306 399
3 118 476 478
3 266 480 478
3 478 480 267
3 103 51 27
3 646 316 463
3 375 376 8
3 544 247 261
3 183 54 513
3 49 31 75
3 420 417 400
3 663 385 223
3 245 388 376
3 574 564 565
3 630 444 362
3 438 625 689
3 442 295 441
3 470 469 468
3 499 85 86
3 273 271 272
3 262 263 97
3 336 340 335
3 279 153 272
3 679 573 520
3 471 469 133
3 223 322 523
3 194 81 193
3 141 682 263
3 621 460 463
3 320 673 386
3 193 81 166
3 655 658 120
3 604 603 131
3 401 405 446
3 274 610 286
3 171 670 40
3 614 693 104
3 52 691 109
3 525 524 116
3 489 95 490
3 623 546 338
3 254 229 225
3 294 641 431
3 650 651 93
3 147 239 238
3 169 556 203
3 267 649 285
3 251 250 189
3 143 12 577
3 606 245 376
3 612 17 15
3 598 236 148
3 497 491 550
3 230 250 149
3 423 284 210
3 659 369 151
3 585 587 584
3 50 36 70
3 150 371 373
3 282 134 310
3 185 551 552
3 235 237 234
3 90 259 265
3 456 457 455
3 574 565 113
3 171 173 670
3 187 569 568
3 373 371 644
3 188 130 96
3 564 574 114
3 348 448 307
3 1 676 167
3 675 141 264
3 596 201 53
3 535 14 534
3 665 657 122
3 338 546 276
3 684 71 660
3 581 355 579
3 180 457 462
3 480 140 481
3 573 571 520
3 497 550 227
3 18 652 144
3 483 126 482
3 405 418 419
3 648 283 620
3 480 649 267
3 67 639 20
3 136 370 368
3 309 436 286
3 412 400 413
3 446 405 447
3 533 532 14
3 363 390 360
3 436 309 281
3 637 391 134
3 600 601 602
3 292 210 291
3 628 624 332
3 443 663 223
3 137 367 445
3 215 358 299
3 117 314 319
3 554 179 555
3 589 590 59
3 486 78 664
3 508 115 507
3 178 107 175
3 241 155 83
3 58 497 227
3 255 142 253
3 219 685 208
3 67 20 66
3 214 473 475
3 507 23 508
3 43 3 44
3 206 435 506
3 41 102 202
3 406 401 404
3 399 306 396
3 320 385 663
3 133 469 470
3 582 583 188
3 6 201 200
3 106 203 174
3 141 675 601
3 407 400 411
3 635 686 87
3 360 365 366
3 244 108 190
3 661 165 81
3 522 100 72
3 391 283 648
3 82 586 693
3 560 139 647
3 119 317 313
3 106 631 203
3 124 125 489
3 375 374 377
3 459 461 182
3 657 679 520
3 505 85 496
3 132 376 379
3 676 162 650
3 351 410 409
3 306 393 396
3 100 9 99
3 456 455 98
3 581 399 412
3 299 358 192
3 293 292 213
3 571 111 570
3 12 584 533
3 287 221 288
3 507 506 23
3 348 410 542
3 518 520 572
3 457 180 455
3 513 54 511
3 324 204 323
3 187 568 112
3 246 321 615
3 12 576 577
3 477 177 452
3 586 143 693
3 345 307 448
3 0 154 157
3 563 562 517
3 641 440 441
3 67 69 638
3 569 187 107
3 0 157 159
3 91 453 452
3 476 118 219
3 157 154 55
3 409 410 418
3 234 237 56
3 626 394 334
3 215 289 358
3 623 278 331
3 232 231 149
3 626 622 624
3 656 520 518
3 565 568 113
3 186 618 258
3 273 153 286
3 627 394 333
3 590 28 68
3 582 22 491
3 141 601 600
3 618 182 461
3 539 39 541
3 202 39 539
3 496 94 497
3 92 434 607
3 572 520 571
3 586 585 143
3 566 42 570
3 368 521 369
3 694 633 485
3 584 101 532
3 452 451 91
3 265 258 90
3 246 615 384
3 489 695 95
3 533 576 12
3 278 337 327
3 237 238 56
3 77 504 495
3 290 274 330
3 93 553 554
3 509 115 510
3 332 624 622
3 532 531 530
3 383 151 369
3 280 310 309
3 563 517 518
3 269 270 119
3 247 468 466
3 504 24 495
3 25 45 38
3 183 513 184
3 82 614 684
3 22 228 550
3 341 339 342
3 438 689 439
3 644 645 135
3 461 458 181
3 37 64 65
3 462 458 91
3 169 555 556
3 438 218 627
3 660 586 82
3 127 519 640
3 689 625 216
3 634 669 88
3 382 150 373
3 260 261 186
3 78 483 125
3 372 644 371
3 552 179 554
3 9 47 99
3 7 596 53
3 605 603 132
3 61 639 13
3 325 330 274
3 348 432 683
3 493 492 94
3 692 672 356
3 571 573 575
3 252 191 259
3 290 212 610
3 314 209 319
3 443 442 129
3 567 112 566
3 320 321 673
3 627 395 394
3 454 455 180
3 122 486 664
3 61 60 20
3 53 62 7
3 344 347 217
3 185 597 232
3 158 57 239
3 36 50 45
3 109 121 619
3 318 210 642
3 48 37 49
3 53 611 15
3 332 622 623
3 187 112 537
3 613 220 207
3 665 664 123
3 315 207 314
3 152 372 371
3 569 107 183
3 152 666 372
3 656 518 658
3 472 452 177
3 74 11 75
3 492 490 94
3 199 83 198
3 19 29 38
3 89 226 227
3 353 303 352
3 526 297 298
3 692 353 305
3 417 413 400
3 345 301 415
3 559 557 155
3 216 390 689
3 386 117 385
3 181 233 257
3 227 226 668
3 477 452 266
3 514 61 13
3 543 243 162
3 379 654 138
3 122 655 486
3 118 287 288
3 300 341 342
3 619 121 77
3 579 580 581
3 163 634 57
3 116 318 642
3 629 328 204
3 372 645 644
3 258 257 90
3 449 178 175
3 149 250 251
3 465 2 464
3 627 333 438
3 30 38 74
3 74 29 11
3 377 378 471
3 653 439 363
3 249 147 235
3 359 364 390
3 301 353 354
3 687 297 526
3 379 138 605
3 387 640 205
3 396 393 304
3 253 191 252
3 586 72 585
3 291 210 284
3 119 271 423
3 377 471 133
3 149 231 230
3 58 496 497
3 322 209 318
3 482 126 547
3 624 625 333
3 27 684 614
3 339 341 302
3 4 635 680
3 132 379 605
3 22 675 264
3 582 188 22
3 546 616 276
3 528 539 80
3 385 319 223
3 683 687 347
3 575 111 571
3 346 415 414
3 462 91 451
3 211 425 687
3 24 124 489
3 631 106 170
3 614 103 27
3 558 156 557
3 599 470 97
3 517 633 120
3 175 203 46
3 490 95 582
3 156 165 661
3 529 528 538
3 262 191 253
3 122 664 665
3 334 622 626
3 229 254 189
3 351 404 403
3 40 529 538
3 45 50 3
3 574 113 184
3 335 357 330
3 215 299 298
3 347 344 448
3 127 561 548
3 197 661 81
3 368 370 521
3 666 311 134
3 359 277 364
3 163 57 158
3 148 236 235
3 425 213 297
3 83 200 240
3 136 381 370
3 25 36 45
3 657 520 656
3 250 229 189
3 116 643 293
3 382 383 150
3 422 630 659
3 496 493 94
3 183 184 113
3 427 349 429
3 399 688 411
3 571 570 572
3 242 598 164
3 464 182 618
3 300 192 340
3 562 23 517
3 292 296 213
3 249 236 73
3 660 522 72
3 534 530 172
3 455 454 179
3 456 181 457
3 190 249 73
3 368 366 136
3 465 247 466
3 174 175 107
3 86 85 505
3 339 672 352
3 164 598 553
3 245 606 607
3 106 174 173
3 508 23 562
3 273 272 153
3 488 311 152
3 317 119 423
3 667 391 380
3 29 16 48
3 580 399 581
3 196 194 80
3 552 98 179
3 551 185 232
3 410 307 418
3 298 527 526
3 358 357 192
3 431 641 295
3 482 547 131
3 442 441 444
3 364 277 329
3 178 176 474
3 38 45 35
3 295 525 431
3 264 141 263
3 585 12 143
3 654 470 599
3 58 505 496
3 503 502 5
3 691 52 103
3 4 589 591
3 348 307 410
3 117 315 314
3 616 334 393
3 524 523 116
3 35 3 21
3 511 115 512
3 19 38 35
3 347 526 217
3 224 680 55
3 5 34 43
3 396 397 688
3 63 33 64
3 244 73 243
3 77 121 123
3 542 351 402
3 598 185 553
3 425 308 424
3 457 458 462
3 28 66 68
3 46 449 175
3 538 194 40
3 395 398 304
3 471 248 469
3 535 536 14
3 50 70 51
3 123 124 504
3 143 577 594
3 660 82 684
3 293 213 424
3 89 255 254
3 492 489 490
3 322 318 116
3 94 490 491
3 583 130 188
3 669 505 58
3 560 647 467
3 231 234 230
3 519 516 515
3 81 196 197
3 269 220 288
3 62 60 61
3 85 499 498
3 219 220 685
3 573 593 110
3 156 198 557
3 162 651 650
3 20 60 65
3 552 551 98
3 92 548 561
3 0 559 662
3 373 135 374
3 260 191 261
3 611 612 15
3 110 575 573
3 390 216 359
3 599 97 682
3 549 126 484
3 632 168 93
3 351 406 404
3 4 686 635
3 92 561 434
3 288 221 270
3 412 399 411
3 140 592 460
3 498 499 500
3 362 445 369
3 197 199 198
3 83 240 241
3 248 467 466
3 389 353 301
3 41 202 528
3 256 149 251
3 369 361 368
3 611 53 201
3 172 529 670
3 293 424 617
3 216 628 359
3 159 681 161
3 604 607 606
3 350 411 688
3 682 97 263
3 527 299 300
3 379 133 654
3 281 311 488
3 553 185 552
3 565 564 42
3 616 393 392
3 493 494 492
3 412 411 400
3 536 537 14
3 327 326 545
3 117 319 385
3 69 28 224
3 10 5 502
3 625 624 628
3 460 182 463
3 171 40 195
3 247 544 468
3 413 355 581
3 593 109 594
3 454 449 46
3 158 108 157
3 317 209 313
3 354 353 692
3 172 173 535
3 118 288 220
3 137 653 367
3 548 549 127
3 217 343 344
3 158 239 190
3 680 163 158
3 634 88 690
3 367 366 361
3 43 84 21
3 269 313 207
3 486 655 120
3 519 205 640
3 118 220 219
3 18 501 502
3 217 526 527
3 594 693 143
3 475 177 476
3 509 507 115
3 475 473 177
3 15 47 31
3 538 80 194
3 289 284 212
3 153 280 309
3 264 255 228
3 671 356 392
3 511 54 214
3 349 433 398
3 261 191 262
3 442 444 630
3 331 327 545
3 88 226 146
3 522 9 100
3 392 393 306
3 57 238 239
3 437 439 294
3 435 315 117
3 562 563 114
3 418 307 419
3 647 316 646
3 104 109 691
3 430 431 617
3 190 239 147
3 458 459 91
3 463 2 646
3 434 561 127
3 109 79 121
3 392 306 671
3 572 570 42
3 431 525 617
3 316 620 621
3 353 389 303
3 407 420 400
3 49 62 31
3 569 183 113
3 29 48 11
3 647 139 648
3 40 670 529
3 174 107 187
3 590 68 59
3 33 63 21
3 528 202 539
3 176 449 450
3 326 275 325
3 501 145 678
3 539 541 540
3 87 669 634
3 669 668 88
3 34 5 59
3 344 343 303
3 19 35 32
3 544 261 262
3 437 218 438
3 550 228 227
3 136 329 381
3 167 105 166
3 89 227 228
3 451 452 472
3 162 243 651
3 138 654 599
3 319 322 223
3 102 17 202
3 294 428 437
3 427 428 308
3 251 189 252
3 340 192 335
3 465 464 186
3 434 640 387
3 242 236 598
3 669 58 668
3 278 338 337
3 398 397 304
3 120 658 517
3 434 128 608
3 375 133 379
3 120 633 694
3 230 229 250
3 86 505 686
3 554 555 93
3 96 602 601
3 401 446 421
3 231 232 597
3 536 173 174
3 514 13 241
3 667 666 134
3 484 694 549
3 508 114 512
3 181 458 457
3 39 612 611
3 92 604 131
3 660 72 586
3 61 20 639
3 369 521 383
3 43 21 3
3 678 495 76
3 568 569 113
3 335 330 275
3 196 199 197
3 84 43 34
3 84 34 26
3 485 516 519
3 324 488 312
3 49 75 11
3 316 647 648
3 256 90 257
3 578 301 354
3 1 543 676
3 129 422 321
3 634 635 87
3 434 127 640
3 474 54 183
3 631 632 169
3 348 542 432
3 387 205 386
3 17 99 15
3 24 492 494
3 326 328 545
3 366 368 361
3 516 517 23
3 360 366 367
3 667 134 391
3 506 507 206
3 57 690 238
3 462 451 450
3 473 214 54
3 302 340 336
3 637 282 636
3 567 566 570
3 563 564 114
3 89 254 225
3 598 148 597
3 691 103 614
3 212 273 610
3 172 535 534
3 243 73 242
3 397 396 304
3 79 665 121
3 165 166 81
3 0 159 161
3 542 410 351
3 563 42 564
3 424 308 430
3 34 68 26
3 485 519 127
POINT_DATA 696
SCALARS double double
LOOKUP_TABLE default
-0.0525226 
-0.0283134 0.0132974 -0.0271512 
-0.0224267 -0.0167043 -0.0567601 
-0.0672469 -0.0391706 -0.0198448 
-0.00580572 -0.0450822 0.0302878 
-0.0686392 0.0297677 -0.0425114 
-0.0413387 -0.0305058 0.00447249 
-0.0388402 -0.0595825 -0.0349616 
0.0289779 0.0303097 0.0294225 
-0.0296968 -0.0471109 0.00495937 
-0.0484807 -0.0419321 -0.0377979 
-0.0471907 -0.0378378 -0.0418258 
-0.0321263 -0.0320034 -0.0164744 
-0.0517511 -0.036291 -0.0453281 
-0.0148401 -0.0140389 0.0536757 
-0.0256317 -0.0091056 -0.0230981 
0.0504199 -0.0367042 -0.0463109 
-0.0527561 -0.0129335 0.00261895 
0.0238984 -0.0578138 0.0487994 
-0.0423399 0.027716 -0.00388247 
0.0180746 -0.0245062 -0.0594686 
-0.0661236 -0.0590169 -0.0420295 
-0.0475252 -0.0524697 -0.0533077 
-0.0598189 -0.0424064 -0.0546998 
-0.00526075 -0.00640065 0.00533323 
0.00273489 -0.0409628 -0.0438793 
0.0173784 0.0321149 0.0359641 
0.0449323 -0.0379111 -0.0444358 
0.0116977 -0.0669573 -0.0344061 
0.0101369 -0.010179 0.000342344 
0.00942864 0.0317667 0.04518 
0.0425391 0.00366031 0.0201404 
0.0253798 0.0294866 0.0150994 
0.0181964 0.0487044 -0.029521 
-0.013103 0.00380405 -0.0155661 
0.0148325 0.0249228 -0.0111627 
0.0265037 0.0540309 -0.0288175 
0.0351184 0.0414503 0.0472297 
0.0493546 0.0554615 0.0482021 
0.0321864 -0.0383839 -0.0120965 
0.00641258 -0.0288805 0.0400238 
0.0393426 0.0449705 0.0385509 
0.034252 0.0308006 0.0246344 
0.0120234 -0.020555 -0.0426119 
0.0240583 0.0142425 -0.00602575 
-0.0142144 -0.0470444 -0.0440604 
-0.0684757 -0.0554286 0.00509401 
-0.0207703 0.00580637 0.0218406 
0.0333138 0.0261108 0.0128813 
0.0217626 0.015391 0.00964571 
0.0269811 0.0433211 -0.0615436 
-0.0527405 -0.0653805 -0.0445882 
-0.0540009 -0.0643007 -0.0551344 
-0.0411976 -0.0228308 -0.0400641 
-0.0237441 -0.0432504 -0.0030503 
-0.0220838 0.0198355 -0.0425327 
-0.0279846 -0.0099719 0.00748901 
0.0331625 0.00960279 0.00585094 
0.00705467 0.0235152 0.042528 
0.0514665 0.0539045 0.0360619 
0.0560629 0.0457715 0.0537035 
0.0489138 0.032569 0.0553859 
0.0511344 0.0380526 0.0335925 
0.0471873 0.0244519 0.0406063 
-0.0109001 0.0369113 -0.0270771 
-0.0286343 -0.0369463 -0.0128037 
-0.0515386 -0.0564518 -0.0625646 
-0.0605805 -0.0642749 -0.0583819 
-0.0299156 0.0409279 -0.0593794 
0.00535035 0.0110866 -0.00822659 
0.0148454 -0.0276004 -0.0353229 
0.0101196 -0.042122 -0.0254046 
0.0334635 -0.0279832 -0.043402 
0.00689759 -0.0143853 0.0182453 
-0.00163829 -0.0230467 -0.0255832 
-0.0323398 -0.0403441 0.0285758 
0.0228852 0.0275211 0.0324292 
0.0359524 0.0370287 0.036559 
0.0424516 0.0488694 0.0280916 
0.0176263 0.0156075 0.0197811 
0.0130571 -0.000852785 -0.068428 
-0.0693351 0.0115555 -0.0029288 
-0.0117465 -0.0181717 -0.0363364 
0.0184687 -0.00568319 0.00695103 
0.0413575 0.0443035 0.0410769 
0.037929 0.0367567 0.0351881 
0.0469303 0.0479347 0.042423 
0.0414909 0.036223 0.0286026 
0.0313133 0.0265649 0.0303433 
0.0412679 0.0190794 -0.00522561 
-0.0623362 -0.0168279 -0.0261447 
-0.0368723 -0.0348424 -0.0441709 
-0.0503084 -0.0437153 0.0100988 
-0.0581295 -0.0322421 -0.0333033 
-0.039352 -0.0582455 -0.0398345 
-0.0196168 -0.0371622 -0.0206606 
-0.0516519 -0.00921429 -0.01254 
-0.0366925 -0.0404495 -0.0332745 
-0.0334647 -0.0359937 -0.0390807 
-0.0467925 -0.0257836 -0.00811388 
-0.0154834 -0.0194467 -0.00465522 
0.0551674 -0.0197116 0.028499 
0.0317203 0.0308087 0.0457336 
0.0597557 -0.0154942 -0.0503817 
-0.0510111 -0.0591592 -0.0665406 
-0.0216503 -0.0162374 -0.00210509 
-5.80884e-05 -0.0305042 -0.0341353 
-0.0239032 -0.0274679 -0.0357763 
-0.0335728 -0.0567292 -0.0621347 
-0.0531364 -0.0531944 -0.0420303 
-0.0605719 -0.0667351 -0.0447715 
-0.0453966 -0.0280545 -0.0167431 
0.00126543 -0.035686 -0.0328606 
-0.0300586 -0.0116184 0.00599284 
-0.0235553 -0.00830887 0.00841568 
0.0113542 0.0276931 0.0509978 
0.0788504 0.0178734 0.0399865 
0.0161724 0.0713236 0.0687171 
0.023251 0.0399439 0.0504762 
0.0720347 0.0345512 -0.0368744 
-0.0315875 -0.0498666 -0.0605446 
-0.064312 -0.0570059 -0.0502993 
-0.0595787 -0.0653213 -0.0655043 
-0.0600794 -0.0671296 -0.0619348 
-0.0676619 -0.0636351 -0.0543993 
-0.0550915 -0.043707 -0.0280102 
-0.0226377 -0.0298084 -0.0278692 
-0.0105622 -0.039362 -0.0692057 
-0.0522313 -0.0590107 -0.0468 
-0.0231777 -0.011028 -0.00690191 
-0.0352161 0.0446828 -0.0536305 
-0.0325418 0.0256516 0.0279511 
0.00801903 0.00986698 0.0503478 
0.0533468 0.0343928 0.0660744 
0.0828564 0.0847535 0.0533005 
0.0669571 0.0777892 0.0808235 
0.0793379 0.0833725 0.0870835 
0.0755354 0.0624892 0.0779939 
0.0760299 0.0799504 0.0781823 
0.0692574 0.0674965 0.0849147 
0.0716577 0.0755282 0.0868329 
0.0883003 -0.048293 -0.0338305 
-0.0267847 -0.0105121 0.00117319 
-0.00222083 -0.0186515 -0.00243068 
-0.0305058 -0.0410166 0.0217093 
0.0361247 -0.00376792 -0.000508012 
-0.0561695 -0.0298139 -0.0310753 
-0.0429426 -0.048248 -0.0517623 
-0.0496406 -0.0419709 -0.0560063 
-0.0607896 0.0864361 0.0839347 
0.0392858 0.055148 0.054793 
0.0495916 0.0387386 0.0301355 
0.0531379 0.0519387 0.0515068 
0.0515389 0.0455888 0.0361133 
0.0211574 0.0424462 0.0507013 
0.0182663 0.0266102 0.0221361 
0.0094734 -0.00235381 0.00604642 
-0.00644787 0.00472542 -0.0186464 
0.046811 0.0446953 0.0529067 
0.0341349 0.0234495 0.0264752 
0.0133556 0.0171418 0.00329134 
-0.0112671 0.0239576 0.0301472 
0.0332692 0.027918 0.0403875 
-0.0682638 -0.0648177 0.0313044 
0.0291112 0.0287756 0.0267592 
0.0196793 0.0235663 0.0282507 
0.0169565 0.0239896 0.0142606 
0.00306911 0.00682237 0.0121747 
-0.000762862 -0.00524662 0.0336236 
0.00779583 0.0155534 0.0244436 
0.0385073 0.0205425 0.0268003 
0.0372696 0.0432004 0.0476714 
-0.0695371 0.018263 0.0260922 
0.0392431 0.04942 0.0146984 
0.0494917 -0.0649237 -0.00534526 
-0.0376398 -0.0417026 -0.041438 
-0.00177266 -0.0078815 -0.027047 
-0.0115533 0.000762751 -0.0021911 
0.0181293 0.0364875 0.0159565 
0.0231961 0.0364284 0.0410909 
-0.0248436 -0.0395029 -0.0481024 
-0.0522534 0.0498324 -0.0141574 
0.0206535 -0.0539963 -0.00672024 
0.0171835 0.0164085 0.0253813 
0.0300018 0.0451791 0.0427865 
0.0317865 0.0392544 0.0366293 
0.04431 -0.060397 -0.0535419 
-0.0595128 -0.0145445 0.00692905 
0.041789 0.0491085 0.0528231 
0.0547217 0.0526074 0.0476869 
0.0540148 0.0549821 0.0516302 
0.0495806 0.0518867 0.0470169 
0.0527445 0.0450683 0.0399076 
0.0365889 0.0649022 0.0614526 
0.049669 0.0681566 0.0287179 
0.0270765 0.0189696 0.0181946 
0.0159456 0.00681168 -0.00540651 
-0.0348367 -0.0389795 -0.0223478 
0.0252227 0.0427428 0.0348033 
0.0419454 -0.0645285 0.035256 
0.0268308 0.0119085 0.0144119 
0.0187304 0.01004 0.0056283 
0.00140987 -0.000512036 -0.0094971 
-0.00696619 -0.014047 -0.0252597 
-0.0472582 -0.0512404 -0.041356 
0.00341978 0.01554 -0.0442482 
0.00926414 -0.035029 0.0361017 
0.0315309 -0.00594326 0.00487562 
-0.0138581 -0.0227799 -0.0206868 
-0.0307374 -0.00567361 -0.00523037 
-0.0389298 -0.0640354 -0.0504119 
0.02799 0.0197079 0.0336925 
-0.00565772 -0.0153435 -0.0246962 
-0.0333066 -0.0617223 -0.0652799 
0.00482826 -0.0463522 -0.0354904 
-0.0365894 -0.0526268 -0.043975 
0.0037177 -0.00867764 -0.016932 
-0.0131812 0.00457481 0.011468 
0.00317401 -0.0514985 -0.00443107 
0.0438996 0.0476672 0.0466879 
0.0453977 -0.0550305 0.00589186 
-0.0504518 -0.0593581 -0.0362427 
0.0416557 0.0425502 -0.0555353 
-0.0475641 0.0173599 0.00852986 
0.000135533 0.0399731 0.0176847 
-0.0195289 -0.03015 0.0255341 
-0.0154383 -0.017378 0.0230095 
0.048025 -0.0346789 -0.0322791 
0.020258 0.0239531 0.00484909 
0.00932421 -0.0103072 0.00512912 
0.0640959 -0.0419644 0.00637865 
0.0278935 0.0388617 0.0213416 
0.0341673 0.0286607 
